[{"id":1,"nombre":"Price","email":"agirdlestone0@fotki.com","password":"vJPsIne"},
{"id":2,"nombre":"Sibley","email":"selis1@tuttocitta.it","password":"MlhbjJ"},
{"id":3,"nombre":"Ashli","email":"aklemps2@va.gov","password":"WYQP6ZVgB5W"},
{"id":4,"nombre":"Diandra","email":"dbreeder3@yelp.com","password":"oLiaEm"},
{"id":5,"nombre":"Kitty","email":"kmcclunaghan4@blogtalkradio.com","password":"T3vC8n"},
{"id":6,"nombre":"Nettie","email":"ncollihole5@dot.gov","password":"YLR6wdeE"},
{"id":7,"nombre":"Skip","email":"sjados6@deviantart.com","password":"MnfpKBZ7SGj7"},
{"id":8,"nombre":"Prissie","email":"pfrew7@plala.or.jp","password":"f5FaIy"},
{"id":9,"nombre":"Buddie","email":"bhenzley8@mit.edu","password":"EkRrP3Gx"},
{"id":10,"nombre":"Corney","email":"cvenning9@guardian.co.uk","password":"AUOeiAs87o"},
{"id":11,"nombre":"Tiena","email":"thorleya@twitter.com","password":"ZaJY2vnf"},
{"id":12,"nombre":"Alessandro","email":"aortmannb@earthlink.net","password":"hscL20KxuH"},
{"id":13,"nombre":"Arabella","email":"apauleyc@cnn.com","password":"C2jylvJI"},
{"id":14,"nombre":"Bonnie","email":"bmaclardied@rambler.ru","password":"xcZTa3vNiPY"},
{"id":15,"nombre":"Oralee","email":"onewline@washington.edu","password":"YCYFxhjBCh4N"},
{"id":16,"nombre":"Anthia","email":"agravyf@earthlink.net","password":"aEWAlpuZ"},
{"id":17,"nombre":"Casper","email":"cgoatmang@google.pl","password":"NQshCloECUO4"},
{"id":18,"nombre":"Ofelia","email":"othibodeauxh@tripadvisor.com","password":"c7OE0Ym9"},
{"id":19,"nombre":"Arley","email":"alantaffi@networksolutions.com","password":"Ec80BnSEGt"},
{"id":20,"nombre":"Filmore","email":"fosgorbyj@un.org","password":"RAjDEZQ7"},
{"id":21,"nombre":"Haily","email":"hlethibridgek@independent.co.uk","password":"lMD29j"},
{"id":22,"nombre":"Noe","email":"npinardl@amazonaws.com","password":"EG0UfRV9Zj"},
{"id":23,"nombre":"Lucias","email":"llammertzm@dedecms.com","password":"R2lWJrk4cMW1"},
{"id":24,"nombre":"Horten","email":"hderrelln@squidoo.com","password":"87ghaa"},
{"id":25,"nombre":"Blondy","email":"bathelstano@amazon.co.uk","password":"E27M1B"},
{"id":26,"nombre":"Laney","email":"lmcquillanp@mapquest.com","password":"WDuxYi"},
{"id":27,"nombre":"Florance","email":"flyenyngq@blogtalkradio.com","password":"PQlscZX"},
{"id":28,"nombre":"Ameline","email":"ahellyerr@google.it","password":"M76ymXsj"},
{"id":29,"nombre":"Othello","email":"otwopennys@mozilla.com","password":"D7uq9jl"},
{"id":30,"nombre":"Doy","email":"dfallowest@microsoft.com","password":"mkBx9Ehfwyf"},
{"id":31,"nombre":"Donica","email":"dwarboyu@arstechnica.com","password":"0MwvSXwPJf"},
{"id":32,"nombre":"Francisco","email":"fderingtonv@furl.net","password":"plZ5aB"},
{"id":33,"nombre":"Karlik","email":"kveljesw@arstechnica.com","password":"4o63dlSB3"},
{"id":34,"nombre":"Sandie","email":"slemmx@mozilla.com","password":"K4r57l"},
{"id":35,"nombre":"Cazzie","email":"ccotey@vkontakte.ru","password":"NSwTTzpH8"},
{"id":36,"nombre":"Deane","email":"debbensz@so-net.ne.jp","password":"QuhJDZDFvv"},
{"id":37,"nombre":"Francesca","email":"fdurnall10@shutterfly.com","password":"HhrKdbRb"},
{"id":38,"nombre":"Phelia","email":"pbenne11@a8.net","password":"Cya2g0"},
{"id":39,"nombre":"Blaire","email":"bextal12@discovery.com","password":"yFGemt3YD"},
{"id":40,"nombre":"Erl","email":"emaster13@4shared.com","password":"gw2bq8Beo"},
{"id":41,"nombre":"Yorke","email":"ylettson14@ed.gov","password":"enGufC"},
{"id":42,"nombre":"Karla","email":"kcolley15@goo.gl","password":"BCb7XH"},
{"id":43,"nombre":"Karney","email":"kritchman16@tmall.com","password":"zrcvX2BQ0qGk"},
{"id":44,"nombre":"Brien","email":"bmurfin17@skyrock.com","password":"iM8Xu2rfh"},
{"id":45,"nombre":"Trixie","email":"tfevier18@omniture.com","password":"JyQrOJIvAmb"},
{"id":46,"nombre":"Collin","email":"cburcher19@vimeo.com","password":"QokSOf3ZCy8e"},
{"id":47,"nombre":"Nan","email":"nmoulson1a@webeden.co.uk","password":"mJv4BX1A"},
{"id":48,"nombre":"Gwenneth","email":"gdimitrov1b@posterous.com","password":"1j8S8nyXsed"},
{"id":49,"nombre":"Barnabe","email":"bcarlozzi1c@eepurl.com","password":"JHvNK2U2rKjR"},
{"id":50,"nombre":"Mikaela","email":"mklulisek1d@yandex.ru","password":"KTZomU0"},
{"id":51,"nombre":"Marleah","email":"mmechan1e@unc.edu","password":"WTPsM4"},
{"id":52,"nombre":"Myrvyn","email":"mjeppe1f@google.it","password":"ZOg2UiUca"},
{"id":53,"nombre":"Constance","email":"cthynne1g@chronoengine.com","password":"I2YQ7pJdQb"},
{"id":54,"nombre":"Pernell","email":"pthoma1h@delicious.com","password":"W3eNAr6a6EI"},
{"id":55,"nombre":"Waldemar","email":"wsherringham1i@boston.com","password":"7muICYH2Jr2"},
{"id":56,"nombre":"Melosa","email":"mlauga1j@zimbio.com","password":"UsRZoKmVsn"},
{"id":57,"nombre":"Addie","email":"alowing1k@answers.com","password":"pakYrdybuM"},
{"id":58,"nombre":"Meaghan","email":"mlinwood1l@samsung.com","password":"MPdZLSJZsV"},
{"id":59,"nombre":"Nickey","email":"ncolaton1m@marketwatch.com","password":"6fyd5px4WW1"},
{"id":60,"nombre":"Erskine","email":"ecuming1n@nature.com","password":"DXym979AtzcS"},
{"id":61,"nombre":"Nickey","email":"ngiacobelli1o@ow.ly","password":"7W6OXUe6Cv"},
{"id":62,"nombre":"Harley","email":"hwedgbrow1p@twitter.com","password":"KIsB2ByK"},
{"id":63,"nombre":"Hortensia","email":"heggleston1q@sogou.com","password":"j1J6orB16Kb9"},
{"id":64,"nombre":"Hollie","email":"holynn1r@nhs.uk","password":"NbhClEtAA7ij"},
{"id":65,"nombre":"Angela","email":"acoslitt1s@gov.uk","password":"jlHMuvoVOZv"},
{"id":66,"nombre":"Danell","email":"dcopnell1t@privacy.gov.au","password":"gynFHi"},
{"id":67,"nombre":"Dredi","email":"dcrann1u@bloomberg.com","password":"JYnpPmoh"},
{"id":68,"nombre":"Marjy","email":"mbalderston1v@ustream.tv","password":"dtNBtsGOMcv4"},
{"id":69,"nombre":"Skylar","email":"sleupoldt1w@quantcast.com","password":"V5VLEbxQtK"},
{"id":70,"nombre":"Nickie","email":"nkensy1x@unicef.org","password":"LFRKibdAgI"},
{"id":71,"nombre":"Fedora","email":"fscrivenor1y@desdev.cn","password":"THtEphc"},
{"id":72,"nombre":"Moreen","email":"mvanin1z@acquirethisname.com","password":"E10GVa8FtGm"},
{"id":73,"nombre":"Bo","email":"bneljes20@dion.ne.jp","password":"wvNRYRI5e"},
{"id":74,"nombre":"Monti","email":"mwildbore21@reverbnation.com","password":"M3XPciyyhs2"},
{"id":75,"nombre":"Annette","email":"aknowlman22@bbb.org","password":"16jBy8P0U0A"},
{"id":76,"nombre":"Hiram","email":"hmarch23@foxnews.com","password":"sfHRvNRz48"},
{"id":77,"nombre":"Oswell","email":"ofabri24@privacy.gov.au","password":"oUfzbh"},
{"id":78,"nombre":"Izaak","email":"iewers25@liveinternet.ru","password":"NXiEYY"},
{"id":79,"nombre":"Madonna","email":"mablewhite26@wordpress.org","password":"aAoYxAKf3k"},
{"id":80,"nombre":"Eryn","email":"efrick27@nyu.edu","password":"LzLSnx"},
{"id":81,"nombre":"Hedi","email":"hbentje28@ibm.com","password":"Z7AVfHA"},
{"id":82,"nombre":"Logan","email":"lgransden29@nps.gov","password":"OczVjioA9"},
{"id":83,"nombre":"Kamilah","email":"kmelby2a@washington.edu","password":"3z9AGWYSXRE"},
{"id":84,"nombre":"Ethelin","email":"egidman2b@furl.net","password":"AEp0jlYduIU"},
{"id":85,"nombre":"Nolana","email":"nradin2c@army.mil","password":"y7rbVlQidZr1"},
{"id":86,"nombre":"Gaspard","email":"gbarcke2d@e-recht24.de","password":"bCzc8Lu"},
{"id":87,"nombre":"Zandra","email":"zwibberley2e@sogou.com","password":"yJW721h"},
{"id":88,"nombre":"Alfonse","email":"abarnish2f@economist.com","password":"921QFovT1"},
{"id":89,"nombre":"Hedvig","email":"homahoney2g@epa.gov","password":"aR3VVl"},
{"id":90,"nombre":"Gus","email":"gwyson2h@soup.io","password":"lQTCPxcP"},
{"id":91,"nombre":"Meridith","email":"mgaveltone2i@deliciousdays.com","password":"DdsBZ8n66Izu"},
{"id":92,"nombre":"Brant","email":"bchilver2j@globo.com","password":"Tdyqc0QVZt"},
{"id":93,"nombre":"Ewen","email":"esoanes2k@dyndns.org","password":"ogO78KVFd2u"},
{"id":94,"nombre":"Jo-anne","email":"jwyldish2l@tmall.com","password":"uUya7J"},
{"id":95,"nombre":"Merrily","email":"mdeambrosis2m@topsy.com","password":"v7ikHGHmDnHz"},
{"id":96,"nombre":"Ariella","email":"aaldgate2n@dailymotion.com","password":"BC85d95"},
{"id":97,"nombre":"Audy","email":"asidney2o@sciencedaily.com","password":"HMtuZjX"},
{"id":98,"nombre":"Clerkclaude","email":"cfautly2p@answers.com","password":"HGSLkOuSM"},
{"id":99,"nombre":"Sawyere","email":"swalduck2q@behance.net","password":"ATY80rAUdM"},
{"id":100,"nombre":"Rick","email":"rkieff2r@gnu.org","password":"NAGbvuIx"},
{"id":101,"nombre":"Darleen","email":"dfrisby2s@chicagotribune.com","password":"gldlx3m"},
{"id":102,"nombre":"Elysia","email":"ethal2t@eepurl.com","password":"rZfLJXrhgfc"},
{"id":103,"nombre":"Sylvia","email":"spreddle2u@github.com","password":"vyXGbVTUZ"},
{"id":104,"nombre":"Lorraine","email":"lsoppit2v@reverbnation.com","password":"PPHbhoLMVKc"},
{"id":105,"nombre":"Laurice","email":"lhalfpenny2w@photobucket.com","password":"JmIMQz"},
{"id":106,"nombre":"Winn","email":"waskell2x@netscape.com","password":"2CydhWDku26"},
{"id":107,"nombre":"Lorraine","email":"lchatres2y@oracle.com","password":"vz1KcTGnI7"},
{"id":108,"nombre":"Ronica","email":"rgalle2z@mediafire.com","password":"C5VjV6kEBS6"},
{"id":109,"nombre":"Dorisa","email":"dcullrford30@google.cn","password":"zs1kUD7XehA7"},
{"id":110,"nombre":"Viola","email":"vgoadsby31@surveymonkey.com","password":"bDTJUCJdD"},
{"id":111,"nombre":"Bonnibelle","email":"bheam32@google.co.uk","password":"l9VRBA3h"},
{"id":112,"nombre":"Ira","email":"ibut33@feedburner.com","password":"Z0z99jE7zfvN"},
{"id":113,"nombre":"Base","email":"bfeldhorn34@alexa.com","password":"nIxak6"},
{"id":114,"nombre":"Maible","email":"mdooley35@sourceforge.net","password":"4MyZjAs"},
{"id":115,"nombre":"Kandy","email":"kleagas36@paypal.com","password":"CwkGVX"},
{"id":116,"nombre":"Cale","email":"cgoley37@sourceforge.net","password":"QUYJcw"},
{"id":117,"nombre":"Melodie","email":"mbresnen38@va.gov","password":"c8HT2t8W0t"},
{"id":118,"nombre":"Dudley","email":"dspeak39@wisc.edu","password":"pDCqruo"},
{"id":119,"nombre":"Conrado","email":"cmonery3a@instagram.com","password":"grpLVf3ByK"},
{"id":120,"nombre":"Bradney","email":"bpoole3b@hibu.com","password":"snKQoq3a52Y"},
{"id":121,"nombre":"Judith","email":"jgilpin3c@auda.org.au","password":"Y2LirnuNShsA"},
{"id":122,"nombre":"Lanie","email":"lcorkan3d@etsy.com","password":"d9XHMP9"},
{"id":123,"nombre":"Sean","email":"skimbley3e@china.com.cn","password":"FAJvBs3gFqbP"},
{"id":124,"nombre":"Reginald","email":"rsackur3f@walmart.com","password":"f1Yvf1geQI"},
{"id":125,"nombre":"Bernadette","email":"ballwell3g@flavors.me","password":"ktETwekonX8"},
{"id":126,"nombre":"Torin","email":"tmccook3h@parallels.com","password":"HZ3aIv9kwl3w"},
{"id":127,"nombre":"Jacklyn","email":"jchallender3i@cdbaby.com","password":"edQyR4"},
{"id":128,"nombre":"Jerrylee","email":"jfoldes3j@icq.com","password":"S9fnBr"},
{"id":129,"nombre":"Kenny","email":"kmcgarvie3k@bloglovin.com","password":"IfJWMjScu7"},
{"id":130,"nombre":"Cati","email":"challworth3l@51.la","password":"H7UqC0v"},
{"id":131,"nombre":"Ebonee","email":"elarkin3m@dagondesign.com","password":"4xxyOB0xHsp"},
{"id":132,"nombre":"Brynna","email":"bilyuchyov3n@ox.ac.uk","password":"xHTaOuZCc"},
{"id":133,"nombre":"Dionis","email":"dbridgens3o@sina.com.cn","password":"aVxLgt0A"},
{"id":134,"nombre":"Gerrie","email":"gdransfield3p@paginegialle.it","password":"3NwNaaBRzD3p"},
{"id":135,"nombre":"Kerr","email":"kconti3q@accuweather.com","password":"GbPveJhtY5"},
{"id":136,"nombre":"Prinz","email":"psottell3r@indiatimes.com","password":"dRb4qbGHa"},
{"id":137,"nombre":"Kasey","email":"khandforth3s@hatena.ne.jp","password":"sv0XnVz4rD5H"},
{"id":138,"nombre":"Grissel","email":"gdible3t@wikimedia.org","password":"IRfIvKfe5uo6"},
{"id":139,"nombre":"Cully","email":"cmussen3u@simplemachines.org","password":"QXOszr"},
{"id":140,"nombre":"Harland","email":"hbrickner3v@aol.com","password":"3QOh3l8UO"},
{"id":141,"nombre":"Hyacinthia","email":"hattestone3w@loc.gov","password":"m0lGo0OHAh"},
{"id":142,"nombre":"Lizabeth","email":"lreese3x@google.co.jp","password":"D3YHqwHGsqE"},
{"id":143,"nombre":"Theodor","email":"tgrigor3y@jugem.jp","password":"o5F1v7"},
{"id":144,"nombre":"Filmer","email":"fmquharge3z@paypal.com","password":"GU462gY7Fu"},
{"id":145,"nombre":"Benedick","email":"bmcmurraya40@sfgate.com","password":"XnnGk3F4TTO"},
{"id":146,"nombre":"Clarisse","email":"cdanby41@craigslist.org","password":"xaxlcaJ"},
{"id":147,"nombre":"Marcello","email":"mblincow42@elegantthemes.com","password":"eor1Qu3lE"},
{"id":148,"nombre":"Rodrick","email":"rstruan43@hhs.gov","password":"FJam2sNL"},
{"id":149,"nombre":"Gerardo","email":"gneasam44@dyndns.org","password":"qSLTF38"},
{"id":150,"nombre":"Felicio","email":"filyukhov45@imageshack.us","password":"mbvVLsD0mfB"},
{"id":151,"nombre":"Brandie","email":"bcoppock46@taobao.com","password":"7ezmZGSki"},
{"id":152,"nombre":"Jeni","email":"jbutchard47@sitemeter.com","password":"5R11MX"},
{"id":153,"nombre":"Merissa","email":"mjedrych48@indiegogo.com","password":"EzIVrgDfL6zK"},
{"id":154,"nombre":"Isis","email":"irickarsey49@fc2.com","password":"Rk4qfBU"},
{"id":155,"nombre":"Caitrin","email":"cmorecomb4a@walmart.com","password":"hxbqtSQ12wI"},
{"id":156,"nombre":"Olly","email":"opaxton4b@deviantart.com","password":"Xq3Ysg5vp"},
{"id":157,"nombre":"Pollyanna","email":"pbocking4c@creativecommons.org","password":"m498qmqt"},
{"id":158,"nombre":"Kriste","email":"kjacobsson4d@amazonaws.com","password":"0TE5dw"},
{"id":159,"nombre":"Jarret","email":"jworsfield4e@rambler.ru","password":"7oY7RJ"},
{"id":160,"nombre":"Evin","email":"echellam4f@vinaora.com","password":"PHXJqxhym8tX"},
{"id":161,"nombre":"Juliann","email":"jgoncalo4g@mysql.com","password":"dhoE9pe"},
{"id":162,"nombre":"Cyndy","email":"cindge4h@elegantthemes.com","password":"O0OkQIDT"},
{"id":163,"nombre":"Arleyne","email":"agabala4i@google.it","password":"P6N4On3cjzD"},
{"id":164,"nombre":"Honoria","email":"hcannam4j@nasa.gov","password":"sJEvTufaZ3j"},
{"id":165,"nombre":"Lowe","email":"lling4k@addtoany.com","password":"wm6uJunqRv"},
{"id":166,"nombre":"Gav","email":"geddis4l@comcast.net","password":"ivS5sTMWl0VN"},
{"id":167,"nombre":"Anallise","email":"astiegers4m@ifeng.com","password":"kB2qfcN3f5"},
{"id":168,"nombre":"Eward","email":"epietrzak4n@dot.gov","password":"zYqnf7qsQ"},
{"id":169,"nombre":"Bell","email":"bkarlqvist4o@msu.edu","password":"IcHV8JNpP"},
{"id":170,"nombre":"Rafa","email":"rmcquirter4p@ibm.com","password":"4STCSx4"},
{"id":171,"nombre":"Amerigo","email":"asurcomb4q@utexas.edu","password":"5fis7pAbl"},
{"id":172,"nombre":"Quinn","email":"qboys4r@geocities.com","password":"G8gjyO04o9"},
{"id":173,"nombre":"Finlay","email":"fspottiswoode4s@posterous.com","password":"H7K9H4"},
{"id":174,"nombre":"Rog","email":"rhallock4t@ted.com","password":"VnPfWw48fCi"},
{"id":175,"nombre":"Jandy","email":"jconcklin4u@utexas.edu","password":"LG9VEFeK9WtA"},
{"id":176,"nombre":"Regine","email":"rglendinning4v@tinyurl.com","password":"O31pDTvtvy"},
{"id":177,"nombre":"Glad","email":"gpaal4w@uiuc.edu","password":"GaQzqHLxRqgn"},
{"id":178,"nombre":"Isacco","email":"imacgaughie4x@psu.edu","password":"4zcfveJ6K"},
{"id":179,"nombre":"Tracy","email":"tsevier4y@cmu.edu","password":"Zj5JQMJqw"},
{"id":180,"nombre":"Jedd","email":"jtomasello4z@liveinternet.ru","password":"IvaJmEg"},
{"id":181,"nombre":"Devondra","email":"dslides50@dropbox.com","password":"bTMJSL4iX"},
{"id":182,"nombre":"Aloysia","email":"ahackforth51@acquirethisname.com","password":"2gKYOPb6G"},
{"id":183,"nombre":"Kassey","email":"kjozwicki52@omniture.com","password":"SCehao10qI"},
{"id":184,"nombre":"Maureen","email":"mhocking53@marriott.com","password":"EPNtOY9r"},
{"id":185,"nombre":"Don","email":"darnoult54@wp.com","password":"a5QaMZkfa"},
{"id":186,"nombre":"Benoit","email":"bhoodspeth55@phoca.cz","password":"XamcUtzWorU"},
{"id":187,"nombre":"Doti","email":"dgateley56@chron.com","password":"SEp2OSroCqfS"},
{"id":188,"nombre":"Kalil","email":"ksurgenor57@admin.ch","password":"4LF6IAiG"},
{"id":189,"nombre":"Donia","email":"dblodget58@ask.com","password":"8z2D7BGy1"},
{"id":190,"nombre":"Karil","email":"kmccurley59@vinaora.com","password":"iWLGjsvr"},
{"id":191,"nombre":"Jojo","email":"jpurle5a@vinaora.com","password":"pDA24Bx"},
{"id":192,"nombre":"Lewie","email":"lprimett5b@wsj.com","password":"LvV8Cj"},
{"id":193,"nombre":"Valli","email":"vgarnsworth5c@cocolog-nifty.com","password":"ZA1fqo0QdI2r"},
{"id":194,"nombre":"Abeu","email":"abank5d@w3.org","password":"SXiVlr5GwDL"},
{"id":195,"nombre":"Lock","email":"lavrahamoff5e@csmonitor.com","password":"uFzDZcPK"},
{"id":196,"nombre":"Dexter","email":"dcolman5f@upenn.edu","password":"y230R1iCa"},
{"id":197,"nombre":"Frazer","email":"fmarrow5g@drupal.org","password":"4KlR64"},
{"id":198,"nombre":"Cecelia","email":"cjacmar5h@prnewswire.com","password":"5kKbOCOK"},
{"id":199,"nombre":"Remington","email":"rfarnish5i@vkontakte.ru","password":"MqFru1BzQ"},
{"id":200,"nombre":"Ettore","email":"emcelory5j@sina.com.cn","password":"G2JwEeB6C4"},
{"id":201,"nombre":"Ursa","email":"ubasil5k@mlb.com","password":"lV7adNAni2tX"},
{"id":202,"nombre":"Keriann","email":"klicas5l@google.es","password":"hdpmp2DVb"},
{"id":203,"nombre":"Adelle","email":"arenol5m@163.com","password":"oZweGjGgn"},
{"id":204,"nombre":"Harwell","email":"htwohig5n@youtube.com","password":"qB4p85aNiO"},
{"id":205,"nombre":"Arlee","email":"agasquoine5o@amazonaws.com","password":"QqiOc9"},
{"id":206,"nombre":"Rosy","email":"rcronchey5p@sun.com","password":"yhLf7NQ2o1x3"},
{"id":207,"nombre":"Beck","email":"bmaxsted5q@uol.com.br","password":"OiMe1ffk1up"},
{"id":208,"nombre":"Celine","email":"ccaveney5r@privacy.gov.au","password":"IrqpL5HkmW8"},
{"id":209,"nombre":"Rodge","email":"rpenton5s@instagram.com","password":"ULEu3p6Lx9F"},
{"id":210,"nombre":"Trixy","email":"tmarkus5t@mapquest.com","password":"VbE4vkNAC"},
{"id":211,"nombre":"Bekki","email":"bbourdel5u@mtv.com","password":"EX83k6"},
{"id":212,"nombre":"Auroora","email":"awinterton5v@irs.gov","password":"7GpdwqA"},
{"id":213,"nombre":"Ilene","email":"istallard5w@clickbank.net","password":"EZvjBUWw"},
{"id":214,"nombre":"Petr","email":"pmiddlemist5x@imdb.com","password":"dzGhy1TF3"},
{"id":215,"nombre":"Madison","email":"mspieck5y@ifeng.com","password":"Yzm4g3hFrd7x"},
{"id":216,"nombre":"Nathaniel","email":"nridde5z@dropbox.com","password":"8x3hrZX"},
{"id":217,"nombre":"Valeda","email":"vpaolo60@booking.com","password":"jfrZTNR"},
{"id":218,"nombre":"Ainslee","email":"allewellin61@census.gov","password":"5Yiof96fdm"},
{"id":219,"nombre":"Reggi","email":"rdaffey62@nytimes.com","password":"CCchVCYdZA"},
{"id":220,"nombre":"Kendall","email":"kmatley63@vkontakte.ru","password":"XFdQZqFN"},
{"id":221,"nombre":"Norah","email":"nhartopp64@nbcnews.com","password":"wmv8BgAWps"},
{"id":222,"nombre":"Gaby","email":"gvellden65@kickstarter.com","password":"C5x9Ireu4g1K"},
{"id":223,"nombre":"Gerty","email":"gpebworth66@smh.com.au","password":"lsTgUCBM07"},
{"id":224,"nombre":"Guilbert","email":"gandren67@goodreads.com","password":"Cv9KrB"},
{"id":225,"nombre":"Avram","email":"arevel68@wix.com","password":"Sr6LZpSQguYx"},
{"id":226,"nombre":"Larissa","email":"lbarhems69@google.pl","password":"TvbiVgR"},
{"id":227,"nombre":"Ilyse","email":"idries6a@google.co.jp","password":"GMPIZAjq97"},
{"id":228,"nombre":"Derby","email":"dklimowski6b@nsw.gov.au","password":"HpiIzIq"},
{"id":229,"nombre":"Clemence","email":"cbellam6c@vk.com","password":"hOGFc1RJ"},
{"id":230,"nombre":"Linea","email":"lbethune6d@redcross.org","password":"cJnI3ntoxwn5"},
{"id":231,"nombre":"Davey","email":"dgreggor6e@salon.com","password":"MQcWWEo"},
{"id":232,"nombre":"Angele","email":"acuncarr6f@bigcartel.com","password":"UYOk9Qu3"},
{"id":233,"nombre":"Currey","email":"churles6g@sitemeter.com","password":"YWieAHrBxP"},
{"id":234,"nombre":"Tove","email":"tseaward6h@ovh.net","password":"QDLPcPBf5"},
{"id":235,"nombre":"Robinson","email":"rdemichetti6i@youtu.be","password":"weOSfqx"},
{"id":236,"nombre":"Conny","email":"cblandamore6j@irs.gov","password":"NXyVmfXD6g"},
{"id":237,"nombre":"Natal","email":"njeannesson6k@t.co","password":"WoVdbywuYU"},
{"id":238,"nombre":"Dasya","email":"ddinzey6l@dropbox.com","password":"5kGOr9pI0f3"},
{"id":239,"nombre":"Ingunna","email":"iblues6m@soup.io","password":"5YgNXG"},
{"id":240,"nombre":"Marita","email":"mphythian6n@tinyurl.com","password":"KcPJs033Gduw"},
{"id":241,"nombre":"Kristoffer","email":"kbexley6o@shop-pro.jp","password":"ii7lJafd"},
{"id":242,"nombre":"Lacey","email":"lbithany6p@unc.edu","password":"Ak405ekLI"},
{"id":243,"nombre":"Celene","email":"cfolker6q@surveymonkey.com","password":"YmT8ICSK"},
{"id":244,"nombre":"Yoshi","email":"ykinnon6r@altervista.org","password":"tDTq0anDZj"},
{"id":245,"nombre":"Calli","email":"cickeringill6s@google.co.jp","password":"nCkdHGs"},
{"id":246,"nombre":"Adel","email":"achiverstone6t@apache.org","password":"8p8kLBBiSG"},
{"id":247,"nombre":"Garek","email":"gbonellie6u@barnesandnoble.com","password":"EdGxEgrcYaO"},
{"id":248,"nombre":"Sharona","email":"sblaschek6v@meetup.com","password":"xZXWQS7uLt7T"},
{"id":249,"nombre":"Adel","email":"ahaggish6w@reverbnation.com","password":"mUvW5x"},
{"id":250,"nombre":"Irma","email":"iforrestall6x@furl.net","password":"HwK6ZrlKQq70"},
{"id":251,"nombre":"Elwyn","email":"elodin6y@cbc.ca","password":"3E5qnTwEv"},
{"id":252,"nombre":"Gene","email":"gcuffin6z@ebay.co.uk","password":"3FRDu1Pb"},
{"id":253,"nombre":"Dion","email":"dfirmager70@liveinternet.ru","password":"GM1lwMw2UI"},
{"id":254,"nombre":"Kimberly","email":"kjanway71@flickr.com","password":"bn4DYzC1i21V"},
{"id":255,"nombre":"Archy","email":"agarfoot72@dropbox.com","password":"nPGNK0MKDBh"},
{"id":256,"nombre":"Hedwig","email":"hfitzpatrick73@google.ru","password":"AL0GwGJuw"},
{"id":257,"nombre":"Esteban","email":"efancutt74@usnews.com","password":"2dJLiMn"},
{"id":258,"nombre":"Aeriela","email":"aradoux75@redcross.org","password":"ib86Bcgfv"},
{"id":259,"nombre":"Justinn","email":"jamort76@epa.gov","password":"EcOdZ6RSEG"},
{"id":260,"nombre":"Joelie","email":"jrippin77@simplemachines.org","password":"JAsQn5Dp"},
{"id":261,"nombre":"Alexia","email":"adickman78@cdbaby.com","password":"x4hkAjtGU"},
{"id":262,"nombre":"Bob","email":"bduffil79@skyrock.com","password":"pjfENjpV"},
{"id":263,"nombre":"Gilburt","email":"gseed7a@example.com","password":"3nMFUAayPyS1"},
{"id":264,"nombre":"Ky","email":"kcorke7b@marketwatch.com","password":"4T8TS9wz"},
{"id":265,"nombre":"Donny","email":"dzoppie7c@goo.gl","password":"EH722625w"},
{"id":266,"nombre":"Lark","email":"lludlom7d@hostgator.com","password":"Z7NBRR"},
{"id":267,"nombre":"Chelsae","email":"cgrunwall7e@yolasite.com","password":"JyFXRRg"},
{"id":268,"nombre":"Field","email":"fpomroy7f@discuz.net","password":"HogyuwqIQn"},
{"id":269,"nombre":"Oralla","email":"oaronin7g@shareasale.com","password":"QTZO7f"},
{"id":270,"nombre":"Dennison","email":"dlowin7h@multiply.com","password":"46lQn1oFP6"},
{"id":271,"nombre":"Ricky","email":"rsprowson7i@chron.com","password":"VP0Z7Z8O"},
{"id":272,"nombre":"Gilli","email":"gtearle7j@yahoo.com","password":"KjpmQBXhoG"},
{"id":273,"nombre":"Darrel","email":"dabbati7k@ocn.ne.jp","password":"jJl4lxZL7"},
{"id":274,"nombre":"Katerine","email":"kprowting7l@mac.com","password":"gxvBcw"},
{"id":275,"nombre":"Frederique","email":"fjanata7m@google.nl","password":"GGssDq"},
{"id":276,"nombre":"Mellisent","email":"mkuhwald7n@miibeian.gov.cn","password":"yXteoM"},
{"id":277,"nombre":"Donni","email":"dovernell7o@youtu.be","password":"q1dFhh7v"},
{"id":278,"nombre":"Carmine","email":"cchampkin7p@stanford.edu","password":"0oqnzl"},
{"id":279,"nombre":"Carma","email":"cabbotts7q@e-recht24.de","password":"COEw5Tn3fHMH"},
{"id":280,"nombre":"Orazio","email":"oshilito7r@dropbox.com","password":"ps0DrL"},
{"id":281,"nombre":"Sabrina","email":"sbowker7s@wp.com","password":"W6S7aqsVuNc"},
{"id":282,"nombre":"Conney","email":"cmead7t@mozilla.com","password":"JLyQmUuP"},
{"id":283,"nombre":"Lennard","email":"lbrockley7u@smugmug.com","password":"owqvP6"},
{"id":284,"nombre":"Starlene","email":"smacari7v@bigcartel.com","password":"rwSoYl"},
{"id":285,"nombre":"Shellysheldon","email":"schaffen7w@ftc.gov","password":"rktQyuM"},
{"id":286,"nombre":"Noll","email":"nspurdle7x@fc2.com","password":"pSrIhQj8V"},
{"id":287,"nombre":"Vitoria","email":"vjachtym7y@ebay.co.uk","password":"tWuAfzOn"},
{"id":288,"nombre":"Harlie","email":"hswaysland7z@japanpost.jp","password":"gUk2mC"},
{"id":289,"nombre":"Terrye","email":"tmcard80@usa.gov","password":"HxBFCfe"},
{"id":290,"nombre":"Anestassia","email":"aibeson81@statcounter.com","password":"rgP1F0GSc688"},
{"id":291,"nombre":"Eda","email":"etwyford82@businesswire.com","password":"1JhBScEpUVEC"},
{"id":292,"nombre":"Natka","email":"nbeamand83@nymag.com","password":"nvppEpaV"},
{"id":293,"nombre":"Thorin","email":"tcheeke84@4shared.com","password":"qfXSLH"},
{"id":294,"nombre":"Crin","email":"cmatzl85@nydailynews.com","password":"PuewAlc"},
{"id":295,"nombre":"Laurianne","email":"lzanicchi86@thetimes.co.uk","password":"l7lba2LXSMX"},
{"id":296,"nombre":"Reube","email":"rshugg87@istockphoto.com","password":"Q1pX4wKpc"},
{"id":297,"nombre":"Penn","email":"phealing88@army.mil","password":"IgFQI7w1h"},
{"id":298,"nombre":"Prince","email":"ppawling89@yahoo.co.jp","password":"zamoAvzRA9aG"},
{"id":299,"nombre":"Angelita","email":"atutsell8a@bluehost.com","password":"72fPk1qHZ"},
{"id":300,"nombre":"Lannie","email":"larlow8b@list-manage.com","password":"Az0C1OvS5pc8"},
{"id":301,"nombre":"Marge","email":"mhandasyde8c@guardian.co.uk","password":"55MQ2sHhR1I"},
{"id":302,"nombre":"Lucius","email":"lpendre8d@amazon.co.jp","password":"OnOgB6H"},
{"id":303,"nombre":"Alanah","email":"alightbowne8e@howstuffworks.com","password":"75tkksbpuC60"},
{"id":304,"nombre":"Wit","email":"wlindstedt8f@jimdo.com","password":"3lhjxmA2Km"},
{"id":305,"nombre":"Temple","email":"tdawes8g@sciencedaily.com","password":"PutiWWQxP"},
{"id":306,"nombre":"Arvin","email":"alynch8h@51.la","password":"Si0H49XR3Bx"},
{"id":307,"nombre":"Theresa","email":"tlaverenz8i@oakley.com","password":"uAfFmhzPKlk3"},
{"id":308,"nombre":"Timothy","email":"tcomfort8j@nih.gov","password":"OY8GB0"},
{"id":309,"nombre":"Hinda","email":"hmchardy8k@networkadvertising.org","password":"0tq4RfdbkoG"},
{"id":310,"nombre":"Nissa","email":"narkil8l@mtv.com","password":"jCghdcpip"},
{"id":311,"nombre":"Adriena","email":"agrishagin8m@aol.com","password":"TZ8JXR"},
{"id":312,"nombre":"Ariadne","email":"ahoward8n@japanpost.jp","password":"pHp1UQoC"},
{"id":313,"nombre":"Marcelia","email":"mschuricht8o@blogger.com","password":"RyrFRw"},
{"id":314,"nombre":"Jammal","email":"jshyre8p@skype.com","password":"202Ilzccr"},
{"id":315,"nombre":"Eleanora","email":"egodfroy8q@bbc.co.uk","password":"iUKNXmJFLV"},
{"id":316,"nombre":"Laney","email":"lmelledy8r@sogou.com","password":"1XhfuV8L0U"},
{"id":317,"nombre":"Adelice","email":"aoffin8s@apache.org","password":"xX58sXgGd"},
{"id":318,"nombre":"Tracee","email":"teslie8t@facebook.com","password":"yQzACob8c"},
{"id":319,"nombre":"Hersh","email":"hcrim8u@tripod.com","password":"RRGq3iNVT2b"},
{"id":320,"nombre":"Darrell","email":"dlefeaver8v@prnewswire.com","password":"WEk9O8Ywo"},
{"id":321,"nombre":"Milka","email":"mwallentin8w@4shared.com","password":"EJOCQblU"},
{"id":322,"nombre":"Clay","email":"chuntress8x@yale.edu","password":"n0OGUgsdo"},
{"id":323,"nombre":"Calley","email":"crosenwasser8y@barnesandnoble.com","password":"KaIr9O"},
{"id":324,"nombre":"Diena","email":"ddrillingcourt8z@bigcartel.com","password":"lfORRlJj2b7m"},
{"id":325,"nombre":"Selie","email":"slydiard90@liveinternet.ru","password":"TOwo1oK0"},
{"id":326,"nombre":"Bealle","email":"bostridge91@dion.ne.jp","password":"AxShNe"},
{"id":327,"nombre":"Katlin","email":"kbroadbury92@state.gov","password":"PKogHdo"},
{"id":328,"nombre":"Amy","email":"aklain93@howstuffworks.com","password":"LMKJ4iKfF"},
{"id":329,"nombre":"Vanny","email":"vtamsett94@shutterfly.com","password":"70l0e6Dt4"},
{"id":330,"nombre":"Stavros","email":"spersicke95@liveinternet.ru","password":"tXgUE4VcCI"},
{"id":331,"nombre":"Any","email":"agirardet96@zdnet.com","password":"H4o9dYfryfl"},
{"id":332,"nombre":"Cello","email":"clargent97@usgs.gov","password":"VpkLY8dGa"},
{"id":333,"nombre":"Cory","email":"cdarington98@studiopress.com","password":"ZdbPU6"},
{"id":334,"nombre":"Brien","email":"bmcindrew99@ow.ly","password":"V5xGJDp"},
{"id":335,"nombre":"Tad","email":"tnials9a@aboutads.info","password":"eheMkN"},
{"id":336,"nombre":"Skelly","email":"smassie9b@ycombinator.com","password":"pf8cs2mmDel"},
{"id":337,"nombre":"Rozanna","email":"rleprovest9c@sphinn.com","password":"CUgNbUmDA"},
{"id":338,"nombre":"Charil","email":"cfarnfield9d@yandex.ru","password":"0XjsvvL"},
{"id":339,"nombre":"Gwennie","email":"gropkins9e@slideshare.net","password":"JmcOGpLWr5"},
{"id":340,"nombre":"Elene","email":"estoneley9f@ask.com","password":"03tOvlXaX"},
{"id":341,"nombre":"Winfred","email":"wcreek9g@barnesandnoble.com","password":"JfoS7VwTs"},
{"id":342,"nombre":"Ransell","email":"rhutchens9h@smugmug.com","password":"JUwrMYR"},
{"id":343,"nombre":"Avrit","email":"aluigi9i@hugedomains.com","password":"290IR5sGL1V"},
{"id":344,"nombre":"Cherise","email":"cmatyja9j@mit.edu","password":"JJMNvJp"},
{"id":345,"nombre":"Mag","email":"mhessel9k@nih.gov","password":"8Bx0CQ"},
{"id":346,"nombre":"Melvyn","email":"mweekly9l@themeforest.net","password":"gbhtSu"},
{"id":347,"nombre":"Brittan","email":"bnavaro9m@bloglovin.com","password":"mc0IAaFO"},
{"id":348,"nombre":"Dewie","email":"dwinchcomb9n@histats.com","password":"ZVPNkO8"},
{"id":349,"nombre":"Erwin","email":"ekopje9o@cisco.com","password":"SXHHJog9rct"},
{"id":350,"nombre":"Catrina","email":"cbothams9p@illinois.edu","password":"ScV8cfGgn"},
{"id":351,"nombre":"Camille","email":"cmussilli9q@dmoz.org","password":"johKJ4EnN8"},
{"id":352,"nombre":"Tallie","email":"tfawlks9r@de.vu","password":"Xqr44go1o"},
{"id":353,"nombre":"Luce","email":"lchristaeas9s@mozilla.org","password":"O7wIh8p94"},
{"id":354,"nombre":"Amelia","email":"aguage9t@goo.ne.jp","password":"RPBQ5BG"},
{"id":355,"nombre":"Matelda","email":"mburgis9u@last.fm","password":"WJzLMdxatqG"},
{"id":356,"nombre":"Bryn","email":"bcudworth9v@netlog.com","password":"EmhNaDqUi"},
{"id":357,"nombre":"Rex","email":"rjuszczak9w@cocolog-nifty.com","password":"YzC70asmtYi"},
{"id":358,"nombre":"Boycey","email":"bsargerson9x@howstuffworks.com","password":"S3CphNYdBs8"},
{"id":359,"nombre":"Jodee","email":"jaddicott9y@free.fr","password":"mN8Nys62Yxm0"},
{"id":360,"nombre":"Jemmie","email":"jdaud9z@ebay.co.uk","password":"a3A9rPVA"},
{"id":361,"nombre":"Dotti","email":"devequota0@hc360.com","password":"07diAzaCNa"},
{"id":362,"nombre":"Benton","email":"blockyera1@mtv.com","password":"Nu85XTs"},
{"id":363,"nombre":"Dorita","email":"dettlesa2@privacy.gov.au","password":"zv3hYWEFW1"},
{"id":364,"nombre":"Annelise","email":"awintoura3@bigcartel.com","password":"q3utlLF"},
{"id":365,"nombre":"Rudiger","email":"rgartrella4@businessweek.com","password":"e6O0AIln19xH"},
{"id":366,"nombre":"Portia","email":"pmcmeylera5@geocities.jp","password":"Otcwxn"},
{"id":367,"nombre":"Rina","email":"rwordeswortha6@photobucket.com","password":"0iZpbo"},
{"id":368,"nombre":"Kellby","email":"karnaldoa7@ebay.co.uk","password":"tA8g6fBAFjyS"},
{"id":369,"nombre":"Thorndike","email":"tkiniga8@disqus.com","password":"ABQSNAd5lrUI"},
{"id":370,"nombre":"Farrah","email":"fsilversa9@phoca.cz","password":"pQNSFHRqXjWc"},
{"id":371,"nombre":"Jamesy","email":"jclimoaa@independent.co.uk","password":"0hoCNSP5Wl4Q"},
{"id":372,"nombre":"Micky","email":"mroyansab@furl.net","password":"Zmbv7O"},
{"id":373,"nombre":"Percival","email":"plalleyac@pbs.org","password":"tXnLrj"},
{"id":374,"nombre":"Jessie","email":"jhearlead@nih.gov","password":"sZqSXFUHPyZJ"},
{"id":375,"nombre":"Skell","email":"spulestonae@wordpress.org","password":"nGhO4LQBOi"},
{"id":376,"nombre":"Shelia","email":"smehmetaf@google.com.hk","password":"OD1vsQ7D"},
{"id":377,"nombre":"Cece","email":"ctoppag@joomla.org","password":"uIqTQvb3Flxa"},
{"id":378,"nombre":"Zachariah","email":"zskoneah@wiley.com","password":"BkMg3Sf4"},
{"id":379,"nombre":"Ephrayim","email":"ealthropeai@miibeian.gov.cn","password":"0pmWActU"},
{"id":380,"nombre":"Belia","email":"bhaggeraj@slate.com","password":"Nwes26hynSE0"},
{"id":381,"nombre":"Jordain","email":"jdmitrienkoak@google.ca","password":"SPB5rEzUc"},
{"id":382,"nombre":"Liesa","email":"llambolal@blogger.com","password":"SNj15CJyl"},
{"id":383,"nombre":"Pandora","email":"pleteurtream@businessweek.com","password":"WHZWOyu2C"},
{"id":384,"nombre":"Ethyl","email":"eolivieran@washingtonpost.com","password":"hP79ibnQLo6f"},
{"id":385,"nombre":"Gino","email":"gspadariao@prnewswire.com","password":"3RQeqEtLUP"},
{"id":386,"nombre":"Burr","email":"bmcgilvrayap@unc.edu","password":"1JA589iQwCBT"},
{"id":387,"nombre":"Herve","email":"hfaderaq@arizona.edu","password":"55aTg50brH"},
{"id":388,"nombre":"Neysa","email":"ngumeyar@desdev.cn","password":"S6C1eOD4x"},
{"id":389,"nombre":"Marlo","email":"mpaffleyas@mashable.com","password":"QJONA6x"},
{"id":390,"nombre":"Pippo","email":"pcheavinat@360.cn","password":"ild2894"},
{"id":391,"nombre":"Edin","email":"eparemanau@thetimes.co.uk","password":"9VW5PQ"},
{"id":392,"nombre":"Alanna","email":"aaplinav@ted.com","password":"vfATOr"},
{"id":393,"nombre":"Towny","email":"tvernhamaw@zimbio.com","password":"Bdi49Lv"},
{"id":394,"nombre":"Lenora","email":"lolivieax@github.com","password":"hDi7VdkO"},
{"id":395,"nombre":"Hermione","email":"hprosseray@cornell.edu","password":"p2eR5uphfZ"},
{"id":396,"nombre":"Drew","email":"dbellsonaz@auda.org.au","password":"P8iQ3Jug4rd"},
{"id":397,"nombre":"Lianne","email":"linchcombb0@dailymotion.com","password":"fiIz7Xnc7Az"},
{"id":398,"nombre":"Moises","email":"mlarringtonb1@un.org","password":"Jmp7ycSuH"},
{"id":399,"nombre":"Levey","email":"ldowellb2@imdb.com","password":"ClWW2mgMxOoo"},
{"id":400,"nombre":"Forster","email":"fhazartb3@nifty.com","password":"08JAeU"},
{"id":401,"nombre":"Elinor","email":"eroddellb4@alibaba.com","password":"Ml7WAlydNKT"},
{"id":402,"nombre":"Sol","email":"sabbyb5@mysql.com","password":"T5s9Kd"},
{"id":403,"nombre":"Kara-lynn","email":"kesserb6@bing.com","password":"761kMo7Uvz"},
{"id":404,"nombre":"Rodge","email":"rhuginb7@amazonaws.com","password":"lCIkLCFCiq"},
{"id":405,"nombre":"Querida","email":"qglasonb8@samsung.com","password":"cgma0ZcHX"},
{"id":406,"nombre":"Ashely","email":"aklimentyonokb9@prweb.com","password":"F7YBl7NIR6k"},
{"id":407,"nombre":"Baryram","email":"bsutliffba@telegraph.co.uk","password":"iJk0DT5PoQ"},
{"id":408,"nombre":"Jaymie","email":"jmatijasevicbb@google.de","password":"QZYl4LbE"},
{"id":409,"nombre":"Shay","email":"sdeanebc@skype.com","password":"qdR9yWhoHAh"},
{"id":410,"nombre":"Lynne","email":"lmckewbd@apple.com","password":"gTo2he"},
{"id":411,"nombre":"Drusi","email":"dmaccraebe@time.com","password":"q5Gh5kCc"},
{"id":412,"nombre":"Marshall","email":"mdelwaterbf@columbia.edu","password":"IdMBxLj"},
{"id":413,"nombre":"Harper","email":"hvasyukovbg@youku.com","password":"MH6MwALbDtO"},
{"id":414,"nombre":"Lissi","email":"ldeambrosibh@geocities.jp","password":"oy2HRBFhLviC"},
{"id":415,"nombre":"Lusa","email":"lburdasbi@jigsy.com","password":"dJi7F6v8KEgu"},
{"id":416,"nombre":"Ailsun","email":"aizacenkobj@homestead.com","password":"syseJEm4Ht"},
{"id":417,"nombre":"Arlin","email":"akeilingbk@scientificamerican.com","password":"6IYCV1BFl3"},
{"id":418,"nombre":"Romonda","email":"ryorathbl@bluehost.com","password":"6AmRBNRIWbG"},
{"id":419,"nombre":"Pepe","email":"pslewcockbm@earthlink.net","password":"PNgZmN"},
{"id":420,"nombre":"Shelby","email":"sdowmanbn@technorati.com","password":"qpFAm9psGt"},
{"id":421,"nombre":"Garret","email":"gmassinghambo@marketwatch.com","password":"rG2HvBuu"},
{"id":422,"nombre":"Giselbert","email":"ggummerybp@foxnews.com","password":"ZGg93bJviehQ"},
{"id":423,"nombre":"Janek","email":"jvoffbq@blog.com","password":"fnB3q7"},
{"id":424,"nombre":"Amby","email":"amocherbr@uiuc.edu","password":"BRHRdgY117G"},
{"id":425,"nombre":"Alecia","email":"acantlebs@intel.com","password":"Xe8Gwtyl"},
{"id":426,"nombre":"Belita","email":"bcracoebt@163.com","password":"GxCmw8NenD"},
{"id":427,"nombre":"Latia","email":"lwingeatbu@usa.gov","password":"SYRaFn0x"},
{"id":428,"nombre":"Calla","email":"cvaughanbv@alibaba.com","password":"EUyz54oQ"},
{"id":429,"nombre":"Radcliffe","email":"rhadekebw@oaic.gov.au","password":"UQpptz0hSTr2"},
{"id":430,"nombre":"Ondrea","email":"odartebx@myspace.com","password":"RGN1AcmYoFlI"},
{"id":431,"nombre":"Chiquita","email":"cwenmanby@comsenz.com","password":"OAbVZ4s4ahlM"},
{"id":432,"nombre":"Lulu","email":"llathwellbz@theatlantic.com","password":"i8K93f"},
{"id":433,"nombre":"Weider","email":"wmcelreac0@buzzfeed.com","password":"waJAgi8RB"},
{"id":434,"nombre":"Sherilyn","email":"screelmanc1@storify.com","password":"KqxCJk"},
{"id":435,"nombre":"Cory","email":"ckrierc2@microsoft.com","password":"8wMtUP7RjL3A"},
{"id":436,"nombre":"Wilbert","email":"wclemenzac3@wired.com","password":"K59RIvIe"},
{"id":437,"nombre":"Hana","email":"hpargetterc4@phpbb.com","password":"rSXgloX"},
{"id":438,"nombre":"Yetta","email":"ygullbergc5@mtv.com","password":"WafhufXnZa"},
{"id":439,"nombre":"Mavis","email":"mparkesonc6@privacy.gov.au","password":"ffzqlIN"},
{"id":440,"nombre":"Madelina","email":"mpeplawc7@yahoo.co.jp","password":"7nRBr0"},
{"id":441,"nombre":"Darb","email":"draistrickc8@1und1.de","password":"ljiG0kUoEruM"},
{"id":442,"nombre":"Tory","email":"tgreirc9@google.com.au","password":"I8HFQfD0uk"},
{"id":443,"nombre":"Fabian","email":"fruckertca@adobe.com","password":"EFj6bl"},
{"id":444,"nombre":"Sander","email":"sselkirkcb@tinyurl.com","password":"B62sJhxiIr"},
{"id":445,"nombre":"Crystal","email":"ccartycc@studiopress.com","password":"BA8jyk"},
{"id":446,"nombre":"Esther","email":"ebingcd@ask.com","password":"KUd1s8DEJ"},
{"id":447,"nombre":"Debbie","email":"dmanneringce@jimdo.com","password":"X0fqSrAtO"},
{"id":448,"nombre":"Phebe","email":"pbelchercf@squarespace.com","password":"m4Eeuh8"},
{"id":449,"nombre":"Ursola","email":"udellenbrokercg@flickr.com","password":"Mtolhc"},
{"id":450,"nombre":"Cesar","email":"cchoppench@bing.com","password":"pqOgss"},
{"id":451,"nombre":"Ilyssa","email":"ibalthasarci@arstechnica.com","password":"nGcTzeG"},
{"id":452,"nombre":"Cherri","email":"cbaikecj@theglobeandmail.com","password":"qOP6KX"},
{"id":453,"nombre":"Ninette","email":"nwabbck@diigo.com","password":"D2eEFT8lG8w"},
{"id":454,"nombre":"Blithe","email":"bbunstoncl@sohu.com","password":"JvktgEOiFAA"},
{"id":455,"nombre":"Kevan","email":"kcabenacm@go.com","password":"pOJ8rAyn"},
{"id":456,"nombre":"Ella","email":"emartlewcn@goo.ne.jp","password":"rVhWICV"},
{"id":457,"nombre":"Felic","email":"fknaggsco@geocities.jp","password":"dUgpQV"},
{"id":458,"nombre":"Aurore","email":"askirvanecp@engadget.com","password":"ZRNUV5w3P"},
{"id":459,"nombre":"Herc","email":"hdomeneycq@w3.org","password":"uAk48e"},
{"id":460,"nombre":"Edith","email":"emingardcr@fotki.com","password":"xrEai78"},
{"id":461,"nombre":"Hamel","email":"hculhamcs@feedburner.com","password":"Nv7yiUEFx"},
{"id":462,"nombre":"Damita","email":"dkemct@gnu.org","password":"YxLLVwE"},
{"id":463,"nombre":"Rachel","email":"rvaliantcu@fc2.com","password":"hmBr18nL"},
{"id":464,"nombre":"Enrique","email":"eonolandcv@goo.ne.jp","password":"Mb9o14zTfi7B"},
{"id":465,"nombre":"Tony","email":"tkirleycw@yellowbook.com","password":"gmpc6TGMj4"},
{"id":466,"nombre":"Glad","email":"gzimmermeistercx@miitbeian.gov.cn","password":"swyvnqLnrYDF"},
{"id":467,"nombre":"Eberhard","email":"estrawbridgecy@theglobeandmail.com","password":"WKhr8zk"},
{"id":468,"nombre":"Codie","email":"cbollinscz@discuz.net","password":"BGQwGN"},
{"id":469,"nombre":"Sherye","email":"sbagleyd0@reddit.com","password":"nQRwb8G"},
{"id":470,"nombre":"Traver","email":"torchardd1@un.org","password":"jpOBhPefa"},
{"id":471,"nombre":"Dorella","email":"dvallentined2@meetup.com","password":"2gbNMT8t"},
{"id":472,"nombre":"Hirsch","email":"hpenwrightd3@jigsy.com","password":"68HnrvL"},
{"id":473,"nombre":"Michell","email":"msaketd4@hhs.gov","password":"32wLt9pF4"},
{"id":474,"nombre":"Larina","email":"lstrevensd5@sakura.ne.jp","password":"QYNs9vZ"},
{"id":475,"nombre":"Flem","email":"fgerkensd6@icq.com","password":"AJkfMh"},
{"id":476,"nombre":"Bryn","email":"bchartresd7@google.es","password":"yXNJ57xJw"},
{"id":477,"nombre":"Datha","email":"dburrusd8@sphinn.com","password":"b98fMAbjNY"},
{"id":478,"nombre":"Modestine","email":"mlamplughd9@mail.ru","password":"HX9eJV1"},
{"id":479,"nombre":"Niki","email":"narmorda@engadget.com","password":"WxzhCeOUQpxA"},
{"id":480,"nombre":"Robinet","email":"rgiddydb@illinois.edu","password":"qte5uV4HEIk"},
{"id":481,"nombre":"Garvin","email":"gmcgauhydc@is.gd","password":"LQiP9YrR8"},
{"id":482,"nombre":"Gertruda","email":"gfawbertdd@skyrock.com","password":"UtLwfOUI0"},
{"id":483,"nombre":"Howey","email":"hswashde@squidoo.com","password":"uVT1XNqurb"},
{"id":484,"nombre":"Cleveland","email":"cmunnerydf@unicef.org","password":"GfDg7NgQ"},
{"id":485,"nombre":"Tonie","email":"tdinandg@feedburner.com","password":"Hnw4XxNxX1"},
{"id":486,"nombre":"Tamma","email":"tclemencedh@time.com","password":"3R6s4nrAr"},
{"id":487,"nombre":"Hirsch","email":"hbenediktovichdi@auda.org.au","password":"6Lu8TqoMA"},
{"id":488,"nombre":"Colman","email":"cgogiedj@symantec.com","password":"hU9Ho4"},
{"id":489,"nombre":"Ulberto","email":"usilversondk@lycos.com","password":"Glso3KJak"},
{"id":490,"nombre":"Row","email":"rruseworthdl@statcounter.com","password":"kgSH04WspPSl"},
{"id":491,"nombre":"Frants","email":"frostondm@princeton.edu","password":"WnaqifUeMVE"},
{"id":492,"nombre":"Earl","email":"ewhippledn@yelp.com","password":"VIX5XQo"},
{"id":493,"nombre":"Ted","email":"tledgewaydo@example.com","password":"SeZAjEs"},
{"id":494,"nombre":"Wainwright","email":"whalsworthdp@sciencedaily.com","password":"U0LIXJSfVe1"},
{"id":495,"nombre":"Delainey","email":"dstobbiedq@mediafire.com","password":"N5eGFVqD28"},
{"id":496,"nombre":"Whittaker","email":"wdumphriesdr@github.com","password":"yhAVop8b"},
{"id":497,"nombre":"Kristy","email":"kkatzmannds@hp.com","password":"ZkXv1Di"},
{"id":498,"nombre":"Tadio","email":"tsutchdt@indiegogo.com","password":"1kE1eFZz"},
{"id":499,"nombre":"Ethelin","email":"eeveraldu@naver.com","password":"EfuHEFho"},
{"id":500,"nombre":"Addy","email":"amepsteddv@businesswire.com","password":"uRPq5RwUBO"},
{"id":501,"nombre":"Adena","email":"avenarddw@elpais.com","password":"GNguKj"},
{"id":502,"nombre":"Emlen","email":"emcillrickdx@ftc.gov","password":"JtQBzMz1D"},
{"id":503,"nombre":"Aeriell","email":"amacourekdy@shop-pro.jp","password":"6QIF6t2s"},
{"id":504,"nombre":"Guthrie","email":"gpullendz@cocolog-nifty.com","password":"xF6mFrwOqk3v"},
{"id":505,"nombre":"Pate","email":"pgerniere0@phpbb.com","password":"z0ZoeV"},
{"id":506,"nombre":"Matilde","email":"mishakie1@netscape.com","password":"m193fl"},
{"id":507,"nombre":"Carlen","email":"cgilbye2@yolasite.com","password":"R91GmOIC1cY"},
{"id":508,"nombre":"Mord","email":"mtrolleye3@arstechnica.com","password":"wVBqfFk"},
{"id":509,"nombre":"Ruttger","email":"rpottese4@wufoo.com","password":"mdLAnmJqBC"},
{"id":510,"nombre":"Georgie","email":"gpendleberrye5@indiegogo.com","password":"zE0mGaeG"},
{"id":511,"nombre":"Elenore","email":"edadsone6@exblog.jp","password":"Xu61JQE4dK"},
{"id":512,"nombre":"Gale","email":"geynone7@xinhuanet.com","password":"he5pmWnmP7CB"},
{"id":513,"nombre":"Fredericka","email":"fcurme8@chronoengine.com","password":"Cx7gX49"},
{"id":514,"nombre":"Aron","email":"amcrobbiee9@deviantart.com","password":"p1tGZQ"},
{"id":515,"nombre":"Amata","email":"aproudleyea@printfriendly.com","password":"SbTm9S"},
{"id":516,"nombre":"Francois","email":"fashbeyeb@posterous.com","password":"JwMKZWXbNB"},
{"id":517,"nombre":"Lorilee","email":"lmaciociaec@gnu.org","password":"brbAUSLBr"},
{"id":518,"nombre":"Christy","email":"cmckeaneyed@go.com","password":"nPe3W8joMxr"},
{"id":519,"nombre":"Chryste","email":"citzkowiczee@un.org","password":"rSrjqqXw"},
{"id":520,"nombre":"Giulia","email":"gdowdallef@bing.com","password":"WEl4AMSOy"},
{"id":521,"nombre":"Ilene","email":"ikencheg@tripadvisor.com","password":"RaezkuyRH"},
{"id":522,"nombre":"Ambrose","email":"agresseh@nih.gov","password":"Lwa7EFEP0BI"},
{"id":523,"nombre":"Tabby","email":"tbougourdei@shareasale.com","password":"WEjS9o962c"},
{"id":524,"nombre":"Stanislaw","email":"sminkinej@squarespace.com","password":"HqXNcwME"},
{"id":525,"nombre":"Darius","email":"dabramoviczek@slideshare.net","password":"wIpwTY"},
{"id":526,"nombre":"Ira","email":"ihurleyel@bluehost.com","password":"5178Lx"},
{"id":527,"nombre":"Darya","email":"dhinzem@tiny.cc","password":"eE8hfaq"},
{"id":528,"nombre":"Gertrud","email":"golubyen@theglobeandmail.com","password":"S5VmLf"},
{"id":529,"nombre":"Franz","email":"fnaysheeo@123-reg.co.uk","password":"djwyQ3qePEx"},
{"id":530,"nombre":"Hadrian","email":"hgrellisep@oakley.com","password":"a80luRVywlN"},
{"id":531,"nombre":"Russ","email":"rsimenoneq@foxnews.com","password":"H7qt5e1oOOn"},
{"id":532,"nombre":"Natka","email":"ncranefielder@elpais.com","password":"C5guXy8"},
{"id":533,"nombre":"Micky","email":"mhapgoodes@businessweek.com","password":"Udoh16O"},
{"id":534,"nombre":"Erminie","email":"egoshawket@stanford.edu","password":"8pA6KWg2Tjrw"},
{"id":535,"nombre":"Rayshell","email":"rmckendryeu@friendfeed.com","password":"5tVwH6"},
{"id":536,"nombre":"Tabb","email":"tgydeev@wp.com","password":"yxeyko"},
{"id":537,"nombre":"Regine","email":"rlorainew@wired.com","password":"SFt50M4Ig8gh"},
{"id":538,"nombre":"Jelene","email":"joverburyex@odnoklassniki.ru","password":"0OYPDKj1v7q"},
{"id":539,"nombre":"Gwenneth","email":"gverbruggeney@e-recht24.de","password":"5WslQf1"},
{"id":540,"nombre":"Mattheus","email":"mrideoutez@pbs.org","password":"FK1oMUNDl2"},
{"id":541,"nombre":"Abramo","email":"apillmanf0@japanpost.jp","password":"HopAnSnhly"},
{"id":542,"nombre":"Klara","email":"klynesf1@cloudflare.com","password":"mc8At8ROM8T"},
{"id":543,"nombre":"Brynna","email":"bandrejsf2@state.gov","password":"Njwkia11ga"},
{"id":544,"nombre":"Sergent","email":"sstanyardf3@mit.edu","password":"Pue73DxX3ePP"},
{"id":545,"nombre":"Pammie","email":"phansillf4@prnewswire.com","password":"Ic3Hsd"},
{"id":546,"nombre":"Amanda","email":"aclemotf5@goodreads.com","password":"9h9FchW46YQ"},
{"id":547,"nombre":"Nanci","email":"nberninif6@tiny.cc","password":"c2ZmtDn7BhgK"},
{"id":548,"nombre":"Korella","email":"kmceneryf7@angelfire.com","password":"mLDRJHhoc"},
{"id":549,"nombre":"Alick","email":"aeveryf8@comcast.net","password":"zir0gCntO"},
{"id":550,"nombre":"Dianna","email":"dseiff9@csmonitor.com","password":"ysOtBEKrS"},
{"id":551,"nombre":"Clarita","email":"cmainstonefa@indiegogo.com","password":"kLvwlfu"},
{"id":552,"nombre":"Teodora","email":"tdefondfb@ustream.tv","password":"PhNOAUw"},
{"id":553,"nombre":"Lorene","email":"lmerfinfc@about.com","password":"mnCzouz1yi3"},
{"id":554,"nombre":"Nonna","email":"nfaradayfd@wiley.com","password":"JfjGX16u645e"},
{"id":555,"nombre":"Francklin","email":"fmewisfe@mtv.com","password":"lSTj4f"},
{"id":556,"nombre":"Nevile","email":"nblanketff@ezinearticles.com","password":"3rNc3l4eXj"},
{"id":557,"nombre":"Andriana","email":"apurserfg@virginia.edu","password":"ZvvLWMi2zK"},
{"id":558,"nombre":"Winston","email":"wmclearyfh@gizmodo.com","password":"wijOhFcmsf4F"},
{"id":559,"nombre":"Westbrooke","email":"wbollefi@usda.gov","password":"kTuickzmIz"},
{"id":560,"nombre":"Derek","email":"dgrzelewskifj@istockphoto.com","password":"4RTSFGbBfAGF"},
{"id":561,"nombre":"Lew","email":"lduttonfk@live.com","password":"MChGhnxZ8"},
{"id":562,"nombre":"Jone","email":"jtorfinfl@nature.com","password":"Pqwm8oUh2"},
{"id":563,"nombre":"Cirstoforo","email":"cjanousfm@google.com.br","password":"Crb1TyPtg"},
{"id":564,"nombre":"Saraann","email":"scawsyfn@cbc.ca","password":"AC6yxpTW"},
{"id":565,"nombre":"Ancell","email":"agammidgefo@wikimedia.org","password":"RJy2tDm"},
{"id":566,"nombre":"Elnar","email":"epaulinfp@auda.org.au","password":"G284L0pl0"},
{"id":567,"nombre":"Thane","email":"trappfq@w3.org","password":"Q2KYJcq"},
{"id":568,"nombre":"Chloette","email":"ckreberfr@umn.edu","password":"MshGTCZ"},
{"id":569,"nombre":"Roy","email":"rscudamorefs@netscape.com","password":"RLc0FqQJ"},
{"id":570,"nombre":"Rudolfo","email":"rclimsonft@blog.com","password":"dETjsXJJ"},
{"id":571,"nombre":"Ximenes","email":"xbeelsfu@youtube.com","password":"Ab02H1yP"},
{"id":572,"nombre":"Esteban","email":"esitlingtonfv@wp.com","password":"UQ8zYEM1RIR4"},
{"id":573,"nombre":"Cly","email":"cnancekivellfw@google.ca","password":"vMVzdyGXwXbJ"},
{"id":574,"nombre":"Livvy","email":"lbestwickfx@fema.gov","password":"0bBu1RSKv"},
{"id":575,"nombre":"Merle","email":"mmenify@loc.gov","password":"XKln5rk46zq"},
{"id":576,"nombre":"Wake","email":"wlangtonfz@soup.io","password":"CeAutTgPNa"},
{"id":577,"nombre":"Porter","email":"pondrasekg0@netlog.com","password":"Cizl7Gpyk"},
{"id":578,"nombre":"Rodrigo","email":"rbarckg1@domainmarket.com","password":"37DkiqBcl"},
{"id":579,"nombre":"Saba","email":"sbaumertg2@woothemes.com","password":"DmiBEwuYMM"},
{"id":580,"nombre":"Coralie","email":"ckellingtong3@sphinn.com","password":"RCombw4F6IKv"},
{"id":581,"nombre":"Amos","email":"amustoeg4@dion.ne.jp","password":"hInwkmCFcS"},
{"id":582,"nombre":"Tandie","email":"tsnelleg5@so-net.ne.jp","password":"QMdwglFse"},
{"id":583,"nombre":"Rena","email":"rbadsworthg6@wikimedia.org","password":"shgMmn0twUHn"},
{"id":584,"nombre":"Ludwig","email":"lsuttillg7@twitpic.com","password":"kmwvC9z6esLc"},
{"id":585,"nombre":"Margalo","email":"mgarlettg8@hexun.com","password":"oY7UZzvqW"},
{"id":586,"nombre":"Gilligan","email":"gheriong9@yale.edu","password":"HpNZ9hZ3afgt"},
{"id":587,"nombre":"Crystie","email":"cklimasga@mashable.com","password":"8cO5PhxS"},
{"id":588,"nombre":"Lynelle","email":"lsymsgb@whitehouse.gov","password":"vD5FFmxu"},
{"id":589,"nombre":"Esme","email":"eweighellgc@un.org","password":"uOkhQb03xG"},
{"id":590,"nombre":"Leigh","email":"lwillowsgd@cnbc.com","password":"ZuNWqOfQ"},
{"id":591,"nombre":"Lorinda","email":"lhounsomge@bluehost.com","password":"NhawGg"},
{"id":592,"nombre":"Lurline","email":"lnuttgf@unc.edu","password":"N22eYwyJEvY"},
{"id":593,"nombre":"Chrystal","email":"ckorousgg@sourceforge.net","password":"3umMaR"},
{"id":594,"nombre":"Bernhard","email":"bcurriergh@skyrock.com","password":"e5vDweIw"},
{"id":595,"nombre":"Tedmund","email":"tcastledinegi@flickr.com","password":"fqp4OT"},
{"id":596,"nombre":"Micki","email":"msellickgj@arstechnica.com","password":"8g6Luv7TAOPB"},
{"id":597,"nombre":"Bonita","email":"btitheringtongk@live.com","password":"dCwd21A2T"},
{"id":598,"nombre":"Patricio","email":"pstuergl@gizmodo.com","password":"DHh7iUfQ"},
{"id":599,"nombre":"Niel","email":"nellardgm@wikimedia.org","password":"RxoCY6i"},
{"id":600,"nombre":"Parker","email":"pbiaggellign@posterous.com","password":"cpEuhANA"},
{"id":601,"nombre":"Clary","email":"cchumleygo@goodreads.com","password":"UQSyXDQ6TR"},
{"id":602,"nombre":"Paula","email":"pduffgp@indiegogo.com","password":"2iK4LQ9B"},
{"id":603,"nombre":"Benji","email":"bsaddingtongq@mashable.com","password":"DuZT9D7PBv"},
{"id":604,"nombre":"Devland","email":"ddangeligr@spiegel.de","password":"d30gA52pQ"},
{"id":605,"nombre":"Hilda","email":"hstreatergs@vinaora.com","password":"vzPHu1eKSg"},
{"id":606,"nombre":"Duane","email":"dwyldishgt@biblegateway.com","password":"Cks8txtZUKJ"},
{"id":607,"nombre":"Martie","email":"mblenkinsoppgu@uol.com.br","password":"92ihas"},
{"id":608,"nombre":"Hedvige","email":"hfadergv@wiley.com","password":"2DmnI2CaW"},
{"id":609,"nombre":"Bria","email":"bgallacciogw@merriam-webster.com","password":"PabFwgAZPQ1"},
{"id":610,"nombre":"Korella","email":"kjanickigx@umn.edu","password":"ZZAAgOuYvq"},
{"id":611,"nombre":"Darrell","email":"dfassgy@wix.com","password":"mXtWT4U"},
{"id":612,"nombre":"Ingelbert","email":"iperchgz@amazon.com","password":"hZolrDr5N5l"},
{"id":613,"nombre":"Giuseppe","email":"gtoweh0@quantcast.com","password":"O0O1ILGZ8"},
{"id":614,"nombre":"Nertie","email":"nmourbeyh1@live.com","password":"bH0uhAx"},
{"id":615,"nombre":"Jaquith","email":"jarchibaldh2@merriam-webster.com","password":"8Jfr9ztcd"},
{"id":616,"nombre":"Tremain","email":"tdabelh3@yelp.com","password":"cfH9Fo"},
{"id":617,"nombre":"Sloane","email":"svasyutkinh4@ox.ac.uk","password":"UjpxcT"},
{"id":618,"nombre":"Genevra","email":"gcragheadh5@wikispaces.com","password":"dxjxNTXVRBI"},
{"id":619,"nombre":"Rodina","email":"rklimeckih6@blogspot.com","password":"SUloy1sXw"},
{"id":620,"nombre":"Payton","email":"pcreelmanh7@hibu.com","password":"XFY7EpC"},
{"id":621,"nombre":"Fitzgerald","email":"fpettipherh8@slashdot.org","password":"oZdKxKVTYA5"},
{"id":622,"nombre":"Deeyn","email":"dgladdorh9@princeton.edu","password":"pxAUz5"},
{"id":623,"nombre":"Jeramie","email":"jdanielha@odnoklassniki.ru","password":"VEXfjvJAON"},
{"id":624,"nombre":"Niall","email":"ngibardhb@domainmarket.com","password":"KKlJmhv"},
{"id":625,"nombre":"Cordie","email":"cmattheushc@cyberchimps.com","password":"bUbPQgONoF"},
{"id":626,"nombre":"Madella","email":"mcottahd@mit.edu","password":"wU7CK2KuHo5"},
{"id":627,"nombre":"Emili","email":"elivetthe@yahoo.com","password":"NXSrVMiM"},
{"id":628,"nombre":"Dunn","email":"dmicheuhf@princeton.edu","password":"ccECntUVB"},
{"id":629,"nombre":"Angelica","email":"adampierhg@spiegel.de","password":"Udd2w8"},
{"id":630,"nombre":"Stella","email":"sattwoulhh@dion.ne.jp","password":"oThPcEybb"},
{"id":631,"nombre":"Lorne","email":"lfitzsimmonshi@accuweather.com","password":"pGsqXc"},
{"id":632,"nombre":"Noel","email":"npledgehj@huffingtonpost.com","password":"nott0FKng"},
{"id":633,"nombre":"Wilhelmine","email":"wclatworthyhk@narod.ru","password":"I9dwIQ"},
{"id":634,"nombre":"Arlee","email":"awaughhl@zdnet.com","password":"OwXp3TlP"},
{"id":635,"nombre":"Kore","email":"klarozehm@disqus.com","password":"LoRJxlGrJ6"},
{"id":636,"nombre":"Bevan","email":"bdutthn@csmonitor.com","password":"bqj5ePd"},
{"id":637,"nombre":"Marthe","email":"mleadbetterho@weibo.com","password":"0JgWgz"},
{"id":638,"nombre":"Alexei","email":"aendshp@europa.eu","password":"iWbWNSL32abO"},
{"id":639,"nombre":"Rosaline","email":"rknaggshq@toplist.cz","password":"c34ckWAZ381"},
{"id":640,"nombre":"Naoma","email":"nfalknerhr@hhs.gov","password":"jJ5DXQkzvHq"},
{"id":641,"nombre":"Cynde","email":"chyetths@chicagotribune.com","password":"JEr4hsBytSk"},
{"id":642,"nombre":"Charmian","email":"csedgemondht@nasa.gov","password":"sNQeAj1yPo"},
{"id":643,"nombre":"Monti","email":"mgrainhu@microsoft.com","password":"L0BIqHbaC"},
{"id":644,"nombre":"Read","email":"rtreleavenhv@studiopress.com","password":"JAxDJb"},
{"id":645,"nombre":"Roberta","email":"rshivlinhw@soundcloud.com","password":"dl9aOoq3"},
{"id":646,"nombre":"Trude","email":"tbailliehx@issuu.com","password":"r40nDIpaGZ"},
{"id":647,"nombre":"Alvin","email":"aponderhy@cocolog-nifty.com","password":"I3WE7mpJ"},
{"id":648,"nombre":"Clareta","email":"cdrainshz@cmu.edu","password":"CJnMvqv3ln"},
{"id":649,"nombre":"Elinore","email":"ebruneli0@rakuten.co.jp","password":"hAWKMoS2c"},
{"id":650,"nombre":"Dacy","email":"dgridleyi1@google.es","password":"Nn4hX40"},
{"id":651,"nombre":"Ivette","email":"ibartelli2@blogspot.com","password":"q0uf4r7QhdnZ"},
{"id":652,"nombre":"Filippo","email":"fmanuaudi3@usda.gov","password":"Nf8p1Hw"},
{"id":653,"nombre":"Jessalyn","email":"jpinchbacki4@sphinn.com","password":"pMbEfGS"},
{"id":654,"nombre":"Sallie","email":"slycetti5@github.com","password":"JlGMMiM9S"},
{"id":655,"nombre":"Jo-anne","email":"jjuaresi6@t-online.de","password":"6KjYI4"},
{"id":656,"nombre":"Zonda","email":"ztothei7@dion.ne.jp","password":"bhte3hTH8f"},
{"id":657,"nombre":"Twyla","email":"tozeltoni8@bloglines.com","password":"48ZelQDPTH"},
{"id":658,"nombre":"Therese","email":"tmckaini9@home.pl","password":"z3LLluYcWd"},
{"id":659,"nombre":"Hymie","email":"hchadwenia@ibm.com","password":"CxKSn26v"},
{"id":660,"nombre":"Jeanelle","email":"jmacdunlevyib@foxnews.com","password":"pEzNMJk"},
{"id":661,"nombre":"Karyl","email":"kleemansic@mtv.com","password":"9Egk0NXt4"},
{"id":662,"nombre":"Haven","email":"hchelsomid@opensource.org","password":"IuF07rJA7"},
{"id":663,"nombre":"Edouard","email":"ecovetie@google.co.uk","password":"Yusu88w232D"},
{"id":664,"nombre":"Jilly","email":"jmaskallif@sitemeter.com","password":"zi7Kk9qpQd"},
{"id":665,"nombre":"Alfonse","email":"akelbieig@senate.gov","password":"mgGDTv"},
{"id":666,"nombre":"Saudra","email":"smcnicolih@g.co","password":"Fio141ShHKi"},
{"id":667,"nombre":"Carmelia","email":"chartellii@lycos.com","password":"Wm0zzzTmPw"},
{"id":668,"nombre":"Monika","email":"mnatwickij@friendfeed.com","password":"vtOyxC"},
{"id":669,"nombre":"Conway","email":"ccarrickik@wp.com","password":"oBUBMCYljj"},
{"id":670,"nombre":"Berta","email":"bmckeachieil@answers.com","password":"ensBAMz0R"},
{"id":671,"nombre":"Brigg","email":"bsprottim@eventbrite.com","password":"OtcTO5L7"},
{"id":672,"nombre":"Ervin","email":"eogroganein@webeden.co.uk","password":"JpbWf0wNP"},
{"id":673,"nombre":"Monique","email":"mortellsio@twitter.com","password":"m4qbnd"},
{"id":674,"nombre":"Rog","email":"rdraycottip@home.pl","password":"0gHTNyo"},
{"id":675,"nombre":"Benedick","email":"bgronowiq@edublogs.org","password":"aWAYyVnE"},
{"id":676,"nombre":"Portie","email":"pboughtwoodir@aboutads.info","password":"iqBgBGV2LNjE"},
{"id":677,"nombre":"Tania","email":"tbracchiis@hostgator.com","password":"ihVDAZZB"},
{"id":678,"nombre":"Rodina","email":"rchaineyit@shop-pro.jp","password":"Q8CiL86rzPF0"},
{"id":679,"nombre":"Dirk","email":"dseyfartiu@barnesandnoble.com","password":"oHRwtW6"},
{"id":680,"nombre":"Ola","email":"oboribaliv@ning.com","password":"h7mGllL6uVr"},
{"id":681,"nombre":"Gloriane","email":"ghlavaciw@macromedia.com","password":"GCfhxJpR"},
{"id":682,"nombre":"Cortie","email":"cdachix@ibm.com","password":"o4LaE94"},
{"id":683,"nombre":"Rikki","email":"rmenaryiy@taobao.com","password":"bu4Jgg"},
{"id":684,"nombre":"Marguerite","email":"mbonusiz@springer.com","password":"8ZqPB0yLA9"},
{"id":685,"nombre":"Tootsie","email":"tmargiottaj0@oracle.com","password":"HfYA67"},
{"id":686,"nombre":"Eileen","email":"epurchallj1@discuz.net","password":"GpC5fL"},
{"id":687,"nombre":"Letta","email":"lhurleyj2@google.ru","password":"qUXACRl"},
{"id":688,"nombre":"Pearle","email":"pcampellij3@vk.com","password":"wgG8x3PwI"},
{"id":689,"nombre":"Estelle","email":"eollertonj4@acquirethisname.com","password":"NkAeq0"},
{"id":690,"nombre":"Antonetta","email":"asconcej5@com.com","password":"x2rrT0grx6nQ"},
{"id":691,"nombre":"Barde","email":"bgawthorpej6@themeforest.net","password":"i3oipPWKGe"},
{"id":692,"nombre":"Shannon","email":"sgniewoszj7@springer.com","password":"LUBQ6o"},
{"id":693,"nombre":"Lotti","email":"lbodicamj8@eventbrite.com","password":"lYqgTMHrf0"},
{"id":694,"nombre":"Kendall","email":"kblydenj9@dot.gov","password":"up6tI8XqsUmp"},
{"id":695,"nombre":"Filmer","email":"fdachja@meetup.com","password":"KKlEUpT2"},
{"id":696,"nombre":"Shirley","email":"sferrarjb@liveinternet.ru","password":"IeEDVFgRnHJB"},
{"id":697,"nombre":"Toddy","email":"thorneyjc@freewebs.com","password":"uv5oEGmpiPC"},
{"id":698,"nombre":"Chrissie","email":"cmerigotjd@ucoz.com","password":"ha6OslZ"},
{"id":699,"nombre":"Hurley","email":"hohalliganje@ucla.edu","password":"aCT4VxF"},
{"id":700,"nombre":"Odelle","email":"osentinellajf@epa.gov","password":"DUTxpx3mMX"},
{"id":701,"nombre":"Hershel","email":"hlipyeatjg@slashdot.org","password":"qQQwHzKPoB"},
{"id":702,"nombre":"Glennie","email":"gromainjh@unesco.org","password":"l8p2c1Ony"},
{"id":703,"nombre":"Clive","email":"cduligalji@biglobe.ne.jp","password":"qKUA77Br"},
{"id":704,"nombre":"Jamima","email":"jaismanjj@shareasale.com","password":"clbFYVV"},
{"id":705,"nombre":"Ewart","email":"ejenourejk@time.com","password":"qymcFjL"},
{"id":706,"nombre":"Emmy","email":"egiacobazzijl@theglobeandmail.com","password":"GpHGPhFW"},
{"id":707,"nombre":"Emelen","email":"epentercostjm@opera.com","password":"2lHdjTjD13yP"},
{"id":708,"nombre":"Job","email":"jcrazejn@list-manage.com","password":"IIXljGUj5lt"},
{"id":709,"nombre":"Warden","email":"wdomotorjo@huffingtonpost.com","password":"cOcZvDU"},
{"id":710,"nombre":"Catie","email":"cbrownleajp@ycombinator.com","password":"csj8GHhQk"},
{"id":711,"nombre":"Herve","email":"hrosencrantzjq@blogtalkradio.com","password":"KCXq5A9kuix"},
{"id":712,"nombre":"Tabbatha","email":"tdudeniejr@go.com","password":"FP8QoWC8Xa5c"},
{"id":713,"nombre":"Bridget","email":"bsciacovellijs@ftc.gov","password":"YWlF6CGxve2"},
{"id":714,"nombre":"Reginauld","email":"rgirodonjt@google.com","password":"tyW0GG"},
{"id":715,"nombre":"Rhiamon","email":"rwaddupju@nydailynews.com","password":"7vIUUU4XW"},
{"id":716,"nombre":"Ermin","email":"elerouxjv@sphinn.com","password":"qz0Do4z"},
{"id":717,"nombre":"Randie","email":"rmuckleyjw@imageshack.us","password":"XI880ZlH"},
{"id":718,"nombre":"Maddie","email":"mgringleyjx@geocities.com","password":"Xxi7lVZ"},
{"id":719,"nombre":"Maura","email":"mplampinjy@gizmodo.com","password":"1YW6Rq6Gm"},
{"id":720,"nombre":"Hilton","email":"hdevonishjz@github.io","password":"DT1q1b9"},
{"id":721,"nombre":"Holden","email":"hshamak0@marketwatch.com","password":"fX3zLc"},
{"id":722,"nombre":"Nadiya","email":"ncadmank1@pinterest.com","password":"sORua0jU3J"},
{"id":723,"nombre":"Innis","email":"iurwenk2@unicef.org","password":"HDLuAdHqchgl"},
{"id":724,"nombre":"Valaree","email":"viannik3@feedburner.com","password":"Z9HBypHlNvGB"},
{"id":725,"nombre":"Jerrylee","email":"jcumok4@bloglines.com","password":"Pijh03s7"},
{"id":726,"nombre":"Maura","email":"mpidgleyk5@ocn.ne.jp","password":"ioSxjRQhHa"},
{"id":727,"nombre":"Jermaine","email":"jmcginneyk6@blogs.com","password":"GctWFNi"},
{"id":728,"nombre":"Elysee","email":"evedekhovk7@weibo.com","password":"f3LN5K"},
{"id":729,"nombre":"Hodge","email":"hstarkeyk8@ucoz.ru","password":"z0fIR8ZS"},
{"id":730,"nombre":"Isadora","email":"imeredithk9@yellowbook.com","password":"HCIo58"},
{"id":731,"nombre":"Andi","email":"arobilliardka@amazonaws.com","password":"uQkZ9JXR9n85"},
{"id":732,"nombre":"Kirstin","email":"kfranklinkb@sogou.com","password":"T77NVEGYWSdz"},
{"id":733,"nombre":"Joanne","email":"jduesberrykc@apple.com","password":"ch7aP7qoi"},
{"id":734,"nombre":"Chanda","email":"cfoortkd@oakley.com","password":"p48Mu4eW53O"},
{"id":735,"nombre":"Burton","email":"bbaldacchinoke@behance.net","password":"3U170Wg5iQB"},
{"id":736,"nombre":"Shir","email":"stoalkf@homestead.com","password":"IuvXVabZW"},
{"id":737,"nombre":"Grace","email":"gliptrotkg@springer.com","password":"u0ZM5wrYR"},
{"id":738,"nombre":"Robb","email":"rfalshawkh@ucoz.ru","password":"phajt9t9nOM"},
{"id":739,"nombre":"Gaultiero","email":"gglennonki@4shared.com","password":"EHy1ITp"},
{"id":740,"nombre":"Adeline","email":"amacguirekj@freewebs.com","password":"OoXOfjWjN3Ko"},
{"id":741,"nombre":"Pascale","email":"pbustinkk@google.it","password":"IgGQfske"},
{"id":742,"nombre":"Shari","email":"sothamkl@xrea.com","password":"5NwMtMnF6"},
{"id":743,"nombre":"Hewitt","email":"hjanekm@gnu.org","password":"1zpIFEAXfrj"},
{"id":744,"nombre":"Gabriellia","email":"gjermeykn@deliciousdays.com","password":"lIwtq4h2bbK"},
{"id":745,"nombre":"Cullen","email":"ckingsworthko@cnbc.com","password":"79kQ5VSt"},
{"id":746,"nombre":"Almeda","email":"agillonkp@over-blog.com","password":"50EZMwjnZA"},
{"id":747,"nombre":"Vallie","email":"vstormouthkq@elpais.com","password":"1Q7lo3"},
{"id":748,"nombre":"Mabelle","email":"mureykr@nydailynews.com","password":"6LfBjJNQ"},
{"id":749,"nombre":"Marla","email":"maguirreks@etsy.com","password":"d9slWILjBj2"},
{"id":750,"nombre":"Esmaria","email":"ecootskt@squidoo.com","password":"7uM93sTo"},
{"id":751,"nombre":"Brook","email":"bdinleyku@so-net.ne.jp","password":"QKDLwt6"},
{"id":752,"nombre":"Isidoro","email":"iailmerkv@wufoo.com","password":"ApSJyqf"},
{"id":753,"nombre":"Correna","email":"cbanasevichkw@flavors.me","password":"3iON1nU"},
{"id":754,"nombre":"Foster","email":"fhasellkx@marketwatch.com","password":"CHRNLuE2xDL"},
{"id":755,"nombre":"Terri","email":"tyaxleyky@washington.edu","password":"PNOBRKR"},
{"id":756,"nombre":"Tibold","email":"tweekeskz@imageshack.us","password":"ARcz9uhC5s"},
{"id":757,"nombre":"Odessa","email":"otaffel0@drupal.org","password":"xkYy69p0bw"},
{"id":758,"nombre":"Auberta","email":"azanuttil1@businessinsider.com","password":"adBz8Ib"},
{"id":759,"nombre":"Dania","email":"dpuckinghornel2@theatlantic.com","password":"Jh8e6vFZVr"},
{"id":760,"nombre":"Curry","email":"clamortl3@1688.com","password":"aiBGJoT"},
{"id":761,"nombre":"Donia","email":"dginnetyl4@usatoday.com","password":"Ah2XBM9RR"},
{"id":762,"nombre":"Claudetta","email":"cdinapolil5@tinyurl.com","password":"JRLOfJ47x"},
{"id":763,"nombre":"Henderson","email":"hsedgemondl6@rakuten.co.jp","password":"tbNbt5tl6C8z"},
{"id":764,"nombre":"Nolan","email":"nrandlesonl7@sogou.com","password":"tUtjjDmle11"},
{"id":765,"nombre":"Vonnie","email":"vbraganzal8@netscape.com","password":"YQ8fFTCSvh"},
{"id":766,"nombre":"Bartholomew","email":"bsiudal9@booking.com","password":"uwUYRK3"},
{"id":767,"nombre":"Giustina","email":"gdikla@parallels.com","password":"ruF6kojG4x2"},
{"id":768,"nombre":"Florian","email":"fheistermannlb@howstuffworks.com","password":"gKe2MNd"},
{"id":769,"nombre":"Whitney","email":"wpenhalllc@altervista.org","password":"hveCFf6tUBiW"},
{"id":770,"nombre":"Octavius","email":"ohawksleyld@jimdo.com","password":"fEbKHYfC"},
{"id":771,"nombre":"Willey","email":"wjedraszekle@pen.io","password":"Ge4MCVcrbm"},
{"id":772,"nombre":"Nat","email":"ncarolilf@nature.com","password":"ngra91CM1M"},
{"id":773,"nombre":"Kalil","email":"kbakhrushinlg@google.com","password":"4hEmlAk1"},
{"id":774,"nombre":"Jamison","email":"jstpierrelh@redcross.org","password":"weanqt"},
{"id":775,"nombre":"Cello","email":"cengelli@webeden.co.uk","password":"RkeQ6U"},
{"id":776,"nombre":"Dione","email":"dhutchenslj@clickbank.net","password":"GqQO54g3g"},
{"id":777,"nombre":"Rycca","email":"rmayslk@elpais.com","password":"8IfVbm"},
{"id":778,"nombre":"Gretta","email":"gmcilreavyll@dion.ne.jp","password":"K5QAYtO9Q7e"},
{"id":779,"nombre":"Curcio","email":"cwhittetlm@epa.gov","password":"VxSKAc"},
{"id":780,"nombre":"Eveline","email":"eegintonln@wordpress.org","password":"CE3mOB2ML"},
{"id":781,"nombre":"Conrade","email":"cmackrolo@hugedomains.com","password":"rRDmQiz0"},
{"id":782,"nombre":"Ly","email":"lmcgilbonlp@etsy.com","password":"6QOYwbUSGy"},
{"id":783,"nombre":"Harbert","email":"hrameauxlq@washington.edu","password":"jEt9t5jBanN"},
{"id":784,"nombre":"Garwin","email":"ggeydonlr@scientificamerican.com","password":"LNGmrjSkOi1"},
{"id":785,"nombre":"Jedediah","email":"jbarbels@mapy.cz","password":"VuGXV5"},
{"id":786,"nombre":"Gray","email":"gmercerlt@weather.com","password":"nX9TfI"},
{"id":787,"nombre":"Helenelizabeth","email":"hearwickerlu@rambler.ru","password":"y65t0eJdp"},
{"id":788,"nombre":"Ashley","email":"awhalelv@army.mil","password":"YmGP7yi"},
{"id":789,"nombre":"Aretha","email":"ajenkinslw@ebay.com","password":"wjtQCZ"},
{"id":790,"nombre":"Alvan","email":"apeasbylx@mtv.com","password":"jVk1G3"},
{"id":791,"nombre":"Caril","email":"cwoodheadly@surveymonkey.com","password":"RSg5lhwQCd"},
{"id":792,"nombre":"Billy","email":"bashbrooklz@soundcloud.com","password":"CCsf1XW2"},
{"id":793,"nombre":"Scotty","email":"sbiggadykem0@scientificamerican.com","password":"gJ9ZpbIewG2"},
{"id":794,"nombre":"Roosevelt","email":"rcarranem1@oakley.com","password":"beXGEFi8"},
{"id":795,"nombre":"Jamison","email":"jlomasnym2@scientificamerican.com","password":"mO5599"},
{"id":796,"nombre":"Ulric","email":"ukeppem3@photobucket.com","password":"HmcoS0vshL"},
{"id":797,"nombre":"Gnni","email":"gechalliem4@blogs.com","password":"9c6rrcE"},
{"id":798,"nombre":"Blaine","email":"bsargisonm5@free.fr","password":"dZjLXjHqqB"},
{"id":799,"nombre":"Tomkin","email":"tleidlm6@free.fr","password":"gTaGUwjE"},
{"id":800,"nombre":"Jerri","email":"jfontem7@plala.or.jp","password":"JcJRasPyA"},
{"id":801,"nombre":"Filberte","email":"ftattonm8@sphinn.com","password":"C1hHnLW"},
{"id":802,"nombre":"Ardis","email":"alagom9@admin.ch","password":"E2X6LZ"},
{"id":803,"nombre":"Francoise","email":"fewbankma@forbes.com","password":"uqTynLd9zPS"},
{"id":804,"nombre":"Brandice","email":"btomasuttimb@wikia.com","password":"dAz4Fmn"},
{"id":805,"nombre":"Tabor","email":"tkearsleymc@vimeo.com","password":"u3yln95soOY"},
{"id":806,"nombre":"Agneta","email":"acuckoomd@themeforest.net","password":"XtUHyiF6V"},
{"id":807,"nombre":"Lilly","email":"ldudenieme@fastcompany.com","password":"NS176f"},
{"id":808,"nombre":"Gardy","email":"gfreathymf@jigsy.com","password":"E4Kw3ww"},
{"id":809,"nombre":"Tori","email":"twathanmg@indiegogo.com","password":"l6vLDZ"},
{"id":810,"nombre":"Katrinka","email":"kspurettmh@hhs.gov","password":"mO53Utl2fn"},
{"id":811,"nombre":"Rora","email":"rklempkemi@reference.com","password":"S2ustNWWy1w"},
{"id":812,"nombre":"Pepito","email":"pqueenmj@ucoz.com","password":"9eBai2miUaJ"},
{"id":813,"nombre":"Kellie","email":"kfranekmk@sitemeter.com","password":"gEbhcPx"},
{"id":814,"nombre":"Biddie","email":"bscarlettml@istockphoto.com","password":"9zSmXdUt"},
{"id":815,"nombre":"Simonne","email":"sfreethmm@psu.edu","password":"LwSTkCS"},
{"id":816,"nombre":"Eward","email":"eyarmouthmn@free.fr","password":"DYkN1rd"},
{"id":817,"nombre":"Eimile","email":"ebraidmanmo@nba.com","password":"I9uOB9Ms5"},
{"id":818,"nombre":"Curr","email":"cgisbornemp@blinklist.com","password":"cSM22nZ"},
{"id":819,"nombre":"Curcio","email":"celverstonmq@unicef.org","password":"xm9UUAK"},
{"id":820,"nombre":"Hester","email":"hstiellmr@elpais.com","password":"96v8D461YE3"},
{"id":821,"nombre":"Vilma","email":"vganterms@army.mil","password":"8zRJir0d"},
{"id":822,"nombre":"Francisca","email":"fkingmt@yandex.ru","password":"GjJ0Hk1nFU"},
{"id":823,"nombre":"Andrea","email":"acrixmu@ocn.ne.jp","password":"fjJm1H75lb7E"},
{"id":824,"nombre":"Roddy","email":"rgioanimv@state.tx.us","password":"gD9E5u6"},
{"id":825,"nombre":"Margo","email":"msteanyngmw@chronoengine.com","password":"F8VaXBUcVIV0"},
{"id":826,"nombre":"Hubey","email":"hvanoortmx@sun.com","password":"LRC7LLrp"},
{"id":827,"nombre":"Nolie","email":"nriellymy@topsy.com","password":"Ji9sex"},
{"id":828,"nombre":"Oralle","email":"ocorbittmz@cornell.edu","password":"GltXVttwi"},
{"id":829,"nombre":"Andra","email":"amccarthyn0@loc.gov","password":"Bb3H7AEXDxt"},
{"id":830,"nombre":"Vernice","email":"vdheninn1@state.gov","password":"WJJfd8D"},
{"id":831,"nombre":"Mirilla","email":"mplumridegen2@etsy.com","password":"TTwryU"},
{"id":832,"nombre":"Garnette","email":"glearoyden3@epa.gov","password":"QPWFjCya9c"},
{"id":833,"nombre":"Husain","email":"hgroocockn4@businessweek.com","password":"P7xNoVO"},
{"id":834,"nombre":"Rockwell","email":"rbaracloughn5@trellian.com","password":"tl90FqlMNtrK"},
{"id":835,"nombre":"Zsa zsa","email":"zlazarn6@sfgate.com","password":"FSFwwFD5AHS5"},
{"id":836,"nombre":"Jonathan","email":"jlampaertn7@wix.com","password":"fgQzOClNfOZ"},
{"id":837,"nombre":"Nelie","email":"nsutherann8@prlog.org","password":"Pfx1lLK73"},
{"id":838,"nombre":"Ruperto","email":"rwiffenn9@psu.edu","password":"FEvvkt"},
{"id":839,"nombre":"Kerwinn","email":"krobbna@i2i.jp","password":"sk4TAU"},
{"id":840,"nombre":"Dav","email":"ddimblebynb@mysql.com","password":"Tv9EewN1mX4T"},
{"id":841,"nombre":"Ryan","email":"rlilleymannc@shinystat.com","password":"gBSjdfcCq6Y"},
{"id":842,"nombre":"Carol-jean","email":"cvaneevnd@ihg.com","password":"L3RMfwL"},
{"id":843,"nombre":"Kare","email":"klathene@wunderground.com","password":"N4CqvdpFv"},
{"id":844,"nombre":"Leilah","email":"lbissexnf@utexas.edu","password":"jbhwSIBX7O83"},
{"id":845,"nombre":"Kip","email":"krestieauxng@twitter.com","password":"akDS2k"},
{"id":846,"nombre":"Robenia","email":"rtointonnh@hexun.com","password":"sHzwgBefmu"},
{"id":847,"nombre":"Cull","email":"cechlinni@oaic.gov.au","password":"TL5Ozahu"},
{"id":848,"nombre":"Car","email":"csalternj@apple.com","password":"bmxew30IIgVS"},
{"id":849,"nombre":"Doroteya","email":"dschutzenk@netvibes.com","password":"RWfqL9lo"},
{"id":850,"nombre":"Glyn","email":"ghearlenl@hugedomains.com","password":"8pNvcZoXDvg"},
{"id":851,"nombre":"Alvie","email":"askeatnm@fema.gov","password":"vGBFO4CSK"},
{"id":852,"nombre":"Gayel","email":"gfreannn@dedecms.com","password":"GEriecKKAaY"},
{"id":853,"nombre":"Yank","email":"ygebhardtno@senate.gov","password":"nXeWbXzFpMw"},
{"id":854,"nombre":"Burnard","email":"bflipeknp@biglobe.ne.jp","password":"4vTtsU6rhR"},
{"id":855,"nombre":"Jodie","email":"jcradducknq@state.gov","password":"RndLD1vb"},
{"id":856,"nombre":"Alex","email":"aochterlonynr@ox.ac.uk","password":"4J1nraFBEFd9"},
{"id":857,"nombre":"Mechelle","email":"mprickettns@guardian.co.uk","password":"aI9Pyso"},
{"id":858,"nombre":"Dylan","email":"dreisnt@google.ru","password":"7rI5ERu"},
{"id":859,"nombre":"Thom","email":"thehnkenu@cloudflare.com","password":"i5vp2i8XwCny"},
{"id":860,"nombre":"Laurel","email":"ltrottonnv@opera.com","password":"FtgiUVfT"},
{"id":861,"nombre":"Merissa","email":"msummersidenw@army.mil","password":"KQ3otSdrop3"},
{"id":862,"nombre":"Lucilia","email":"lhampsteadnx@yahoo.com","password":"VPSGYDU4i"},
{"id":863,"nombre":"Freddy","email":"fcurrerny@xinhuanet.com","password":"Eg37esKnj"},
{"id":864,"nombre":"Helenelizabeth","email":"hwhylienz@nps.gov","password":"LBILP2DEzjB"},
{"id":865,"nombre":"Auguste","email":"amacadamo0@seattletimes.com","password":"9bR4dk6S"},
{"id":866,"nombre":"Kerwinn","email":"kthomo1@webnode.com","password":"QL6d7lbuuNN"},
{"id":867,"nombre":"Clementius","email":"cdredgeo2@vimeo.com","password":"nYziJgD"},
{"id":868,"nombre":"Desmund","email":"dwalesao3@360.cn","password":"1SB61E"},
{"id":869,"nombre":"Janos","email":"jginnello4@unc.edu","password":"CFFifyKP"},
{"id":870,"nombre":"Xena","email":"xfronseko5@fc2.com","password":"teQqnIMjyKxW"},
{"id":871,"nombre":"Lucilia","email":"lveldenso6@amazonaws.com","password":"JQ1lWf8H"},
{"id":872,"nombre":"Sansone","email":"shulloto7@examiner.com","password":"YjUuyHDfOXH"},
{"id":873,"nombre":"Clementia","email":"candricko8@adobe.com","password":"ZPZHE2T"},
{"id":874,"nombre":"Bertina","email":"bboerdermano9@who.int","password":"jZTE0V"},
{"id":875,"nombre":"Evvie","email":"estathamoa@youku.com","password":"XAK8lzjNvy"},
{"id":876,"nombre":"Cleavland","email":"cyegorchenkovob@apple.com","password":"Owz2HJyBwk"},
{"id":877,"nombre":"Dael","email":"dgethingsoc@elegantthemes.com","password":"uHT5xYk"},
{"id":878,"nombre":"Bea","email":"bnoorod@craigslist.org","password":"XlVe25"},
{"id":879,"nombre":"Thedric","email":"tbasnettoe@cbslocal.com","password":"uWB2zUNTrwZ"},
{"id":880,"nombre":"Jobye","email":"jwymanof@springer.com","password":"MIgW4Hj"},
{"id":881,"nombre":"Jeramey","email":"jverryog@nasa.gov","password":"6V6BvoOpoY5"},
{"id":882,"nombre":"Phillipp","email":"pcricketoh@epa.gov","password":"fSmhZ192M"},
{"id":883,"nombre":"Loretta","email":"lburnyateoi@latimes.com","password":"S48PqZc"},
{"id":884,"nombre":"Eduino","email":"etoopinoj@flickr.com","password":"BaQa41zFt"},
{"id":885,"nombre":"Cecily","email":"cbarizeretok@github.com","password":"AlEtOQ"},
{"id":886,"nombre":"Rod","email":"rrockinghamol@eventbrite.com","password":"R4Uf2WL"},
{"id":887,"nombre":"Alexandro","email":"alorinczom@dot.gov","password":"PvwMg1BkpMp"},
{"id":888,"nombre":"Shoshanna","email":"sellacombeon@dailymail.co.uk","password":"UKW8zo4RZ"},
{"id":889,"nombre":"Simon","email":"scowndenoo@ameblo.jp","password":"jHjV45YNx"},
{"id":890,"nombre":"Jakob","email":"jmcdonaghop@amazon.co.jp","password":"B6Of6Vo"},
{"id":891,"nombre":"Elnore","email":"eclucasoq@blogger.com","password":"4vSbXwtu"},
{"id":892,"nombre":"Lamond","email":"lshanksteror@engadget.com","password":"ZT3vIin"},
{"id":893,"nombre":"Caroljean","email":"cshildrakeos@soundcloud.com","password":"AGOob9XSI"},
{"id":894,"nombre":"Diena","email":"dfidelerot@icio.us","password":"gmHS3F9"},
{"id":895,"nombre":"Barby","email":"bmerietou@edublogs.org","password":"7gwJnAJGxP"},
{"id":896,"nombre":"Keslie","email":"khariotov@hp.com","password":"ZA8sv6wIBs"},
{"id":897,"nombre":"Mallory","email":"mgreenroaow@icq.com","password":"BXtvGy3zv"},
{"id":898,"nombre":"Stanleigh","email":"sbrattonox@odnoklassniki.ru","password":"lGcRdHvb"},
{"id":899,"nombre":"Jorgan","email":"jmullaneyoy@soundcloud.com","password":"6lKURlaMzq"},
{"id":900,"nombre":"Jonell","email":"jkuncoz@imdb.com","password":"ZEqXquHgmy"},
{"id":901,"nombre":"Jacky","email":"jhaneyp0@chron.com","password":"4VHXlzR"},
{"id":902,"nombre":"Carmina","email":"cjurschp1@symantec.com","password":"NjDH9KzEV"},
{"id":903,"nombre":"Alex","email":"agregonp2@omniture.com","password":"tfkw6fjikA4C"},
{"id":904,"nombre":"Honoria","email":"hmatterseyp3@hp.com","password":"GnAsCjX"},
{"id":905,"nombre":"Konstantin","email":"kgilvearp4@admin.ch","password":"IOAQO7Ixfu"},
{"id":906,"nombre":"Charlie","email":"chassentp5@taobao.com","password":"zLzmul4fkd"},
{"id":907,"nombre":"Brooke","email":"blordp6@google.ca","password":"SMe82gJJAYuF"},
{"id":908,"nombre":"Neville","email":"nvaggsp7@flickr.com","password":"YiAHejLY"},
{"id":909,"nombre":"Tris","email":"tbellasp8@tinypic.com","password":"gwnyuL"},
{"id":910,"nombre":"Baillie","email":"bcurwenp9@oakley.com","password":"Y4vLtUKD3A"},
{"id":911,"nombre":"Emmi","email":"edemkopa@goo.ne.jp","password":"7lGvshG"},
{"id":912,"nombre":"Etta","email":"etattersallpb@i2i.jp","password":"V4DSzmFbhW"},
{"id":913,"nombre":"Damian","email":"drosenstengelpc@oaic.gov.au","password":"t2k0nqyfE"},
{"id":914,"nombre":"Fredek","email":"fandriveauxpd@nyu.edu","password":"sCadGo"},
{"id":915,"nombre":"Ralf","email":"rrollinsonpe@printfriendly.com","password":"ll1BQMlUP2"},
{"id":916,"nombre":"Rosy","email":"rjohananoffpf@weather.com","password":"hywXx7ON"},
{"id":917,"nombre":"Nettle","email":"ncolquhounpg@mediafire.com","password":"xQiUr21kpRYu"},
{"id":918,"nombre":"Murry","email":"mburganph@answers.com","password":"9bXZmLs8aGcC"},
{"id":919,"nombre":"Eveleen","email":"edunrigepi@toplist.cz","password":"j7ixxT30xvP9"},
{"id":920,"nombre":"Kamilah","email":"ktapppj@domainmarket.com","password":"Ei1bFZ1"},
{"id":921,"nombre":"Aleta","email":"astaggspk@techcrunch.com","password":"FtTSwwI7xO"},
{"id":922,"nombre":"Clair","email":"cwalterpl@github.io","password":"kNAohA5s1"},
{"id":923,"nombre":"Eddie","email":"epallaschpm@addtoany.com","password":"o2r0O0S"},
{"id":924,"nombre":"Nickie","email":"nwinchcombepn@businessweek.com","password":"9esnigsZ"},
{"id":925,"nombre":"Eduard","email":"ewesonpo@techcrunch.com","password":"1TvSysJYmC"},
{"id":926,"nombre":"Milicent","email":"mmulryanpp@gnu.org","password":"Cwyfcux5"},
{"id":927,"nombre":"Joaquin","email":"jraithbypq@soup.io","password":"Aj9UurYSRG"},
{"id":928,"nombre":"Hilly","email":"hparduepr@weebly.com","password":"tcx0fLq1YS"},
{"id":929,"nombre":"Siffre","email":"sleinweberps@artisteer.com","password":"ucEYT6L"},
{"id":930,"nombre":"Briana","email":"bdunsmuirpt@cornell.edu","password":"Kn04dPBwQeyu"},
{"id":931,"nombre":"Ahmed","email":"aanlaypu@acquirethisname.com","password":"zPng7B"},
{"id":932,"nombre":"Hashim","email":"hchiesepv@trellian.com","password":"ygHzopR7jbsn"},
{"id":933,"nombre":"Shauna","email":"schansonnaupw@reuters.com","password":"IEi3cbZrlQW"},
{"id":934,"nombre":"Jemima","email":"jpullpx@google.it","password":"egjupyzblK8O"},
{"id":935,"nombre":"Laurice","email":"lhudlesspy@dion.ne.jp","password":"fnsBdx56"},
{"id":936,"nombre":"Mar","email":"mbrownillpz@spotify.com","password":"ClxFfxXsEg"},
{"id":937,"nombre":"Camila","email":"ccrotherq0@engadget.com","password":"KYWXbI"},
{"id":938,"nombre":"Nancey","email":"nsandiferq1@ocn.ne.jp","password":"TzJqc8"},
{"id":939,"nombre":"Rodi","email":"rhagertyq2@myspace.com","password":"ExBu7RPd"},
{"id":940,"nombre":"Fay","email":"fblaksleyq3@hatena.ne.jp","password":"K3kJ4l"},
{"id":941,"nombre":"Dionis","email":"dpoynorq4@w3.org","password":"hmn4Mt"},
{"id":942,"nombre":"Gregory","email":"gmulvinq5@alibaba.com","password":"vW70qUZ2j"},
{"id":943,"nombre":"Haley","email":"hjaherq6@g.co","password":"wXQRomTDrZF6"},
{"id":944,"nombre":"Dallon","email":"dhubbucksq7@sogou.com","password":"fRr1LH7XqTY"},
{"id":945,"nombre":"Gerardo","email":"gfirbankq8@yolasite.com","password":"yY4PrdFWalj4"},
{"id":946,"nombre":"Glyn","email":"gbandyq9@google.com.au","password":"8Ipw2a31m"},
{"id":947,"nombre":"Reta","email":"rsheridanqa@com.com","password":"tq5tiPNT7D"},
{"id":948,"nombre":"Jacquenette","email":"jmcilvennyqb@naver.com","password":"3GSHYCj39W0A"},
{"id":949,"nombre":"Jarrod","email":"jalloneqc@prnewswire.com","password":"cb4A8IZd8"},
{"id":950,"nombre":"Iormina","email":"ipenbarthyqd@marketwatch.com","password":"B49AiL"},
{"id":951,"nombre":"Anjanette","email":"amccaigqe@wikispaces.com","password":"f3AsI1wJ"},
{"id":952,"nombre":"Ashleigh","email":"adebnamqf@nps.gov","password":"Gxt8jI2cX7"},
{"id":953,"nombre":"Lanna","email":"lyakobovitzqg@opensource.org","password":"e3yjtQN1W3"},
{"id":954,"nombre":"Lisa","email":"lleatesqh@lycos.com","password":"XL6sGo5O"},
{"id":955,"nombre":"Didi","email":"dcasiniqi@theatlantic.com","password":"jipZEH"},
{"id":956,"nombre":"Valencia","email":"vtempertonqj@shop-pro.jp","password":"y5TvJUPC7"},
{"id":957,"nombre":"Corabel","email":"cbabinqk@seattletimes.com","password":"SHXwRVIvuS"},
{"id":958,"nombre":"Berton","email":"bscipseyql@miitbeian.gov.cn","password":"PhLeF53E"},
{"id":959,"nombre":"Morissa","email":"mreddlesdenqm@sun.com","password":"Q1gMIYmv"},
{"id":960,"nombre":"Agnella","email":"ashurmerqn@whitehouse.gov","password":"8783j3hS"},
{"id":961,"nombre":"Nana","email":"nmcconnachieqo@dot.gov","password":"6hQbUS6Y40U"},
{"id":962,"nombre":"Tome","email":"thamblinqp@ifeng.com","password":"WS33X4S"},
{"id":963,"nombre":"Butch","email":"bvardieqq@naver.com","password":"pHzY6NNv9pv"},
{"id":964,"nombre":"Iris","email":"iradbourneqr@nhs.uk","password":"G8ACsr"},
{"id":965,"nombre":"Raina","email":"rdurdleqs@bizjournals.com","password":"hx0i4fIMc8"},
{"id":966,"nombre":"Sheela","email":"skleinbererqt@bing.com","password":"izwRin"},
{"id":967,"nombre":"Jennie","email":"jchevinqu@reverbnation.com","password":"Q0WlbPYKqI"},
{"id":968,"nombre":"Ara","email":"acasserlyqv@sun.com","password":"o2QrQQ8ln"},
{"id":969,"nombre":"Nikolia","email":"nandrioniqw@huffingtonpost.com","password":"Wz6fIIQ"},
{"id":970,"nombre":"Tresa","email":"tharfleetqx@youtu.be","password":"EaxUsPozMB"},
{"id":971,"nombre":"Emelita","email":"eroperqy@parallels.com","password":"mg6BWOkJ"},
{"id":972,"nombre":"Hewitt","email":"hashfullqz@columbia.edu","password":"psRaYW8zH9F"},
{"id":973,"nombre":"Granny","email":"gcrannellr0@cdc.gov","password":"4PJ2JFsoJkF"},
{"id":974,"nombre":"Betty","email":"bscedallr1@dot.gov","password":"lUfOBaaACmm9"},
{"id":975,"nombre":"Alan","email":"aherionr2@over-blog.com","password":"TjoAE579"},
{"id":976,"nombre":"Margaretha","email":"mdarellr3@auda.org.au","password":"SIilsGm"},
{"id":977,"nombre":"Diena","email":"dtamplinr4@youtu.be","password":"efgywT"},
{"id":978,"nombre":"Mandie","email":"mcuttinr5@sfgate.com","password":"X8PZQEJeXOn"},
{"id":979,"nombre":"Blythe","email":"bbraggerr6@t.co","password":"SsOXpY11dnx"},
{"id":980,"nombre":"Simonne","email":"scosslettr7@cisco.com","password":"eMkfgpq"},
{"id":981,"nombre":"Rory","email":"rwaldramr8@goo.ne.jp","password":"2OZR4C62C"},
{"id":982,"nombre":"Berenice","email":"bvosser9@google.ru","password":"XSXfGkdm"},
{"id":983,"nombre":"Noemi","email":"nloakesra@flavors.me","password":"ow7DmS2K9lzN"},
{"id":984,"nombre":"Vernon","email":"vswindinrb@un.org","password":"26cbCtCH"},
{"id":985,"nombre":"Francesco","email":"fchadneyrc@cocolog-nifty.com","password":"SCumfYhGoIG"},
{"id":986,"nombre":"Arlene","email":"awhitelandrd@zimbio.com","password":"87XuJrPjDO"},
{"id":987,"nombre":"Jaime","email":"jpayere@xrea.com","password":"yv5LK6GSC1B"},
{"id":988,"nombre":"Zia","email":"zagatesrf@aol.com","password":"Cf06Ol"},
{"id":989,"nombre":"Shalom","email":"sescotrg@unc.edu","password":"Gaw15QiGT64"},
{"id":990,"nombre":"Corrie","email":"cbarnettrh@sourceforge.net","password":"54YozGdvc9"},
{"id":991,"nombre":"Art","email":"afludgateri@wp.com","password":"HeIPyTGjaM"},
{"id":992,"nombre":"Austina","email":"achasteneyrj@t.co","password":"3Dz18YyFs4UV"},
{"id":993,"nombre":"Linet","email":"lhalwardrk@taobao.com","password":"z6kbV5QUL"},
{"id":994,"nombre":"Richie","email":"rrignallrl@smh.com.au","password":"DbZVMMy11Pr"},
{"id":995,"nombre":"Carina","email":"cfitterrm@springer.com","password":"bADBKRO3"},
{"id":996,"nombre":"Cosme","email":"cstaleyrn@go.com","password":"upm0xLAfXN"},
{"id":997,"nombre":"Walden","email":"wcoastro@boston.com","password":"Wmi5Wp9zjT"},
{"id":998,"nombre":"Nowell","email":"nsprowsonrp@barnesandnoble.com","password":"ipWR7Y5Dat"},
{"id":999,"nombre":"Hervey","email":"hventurolirq@360.cn","password":"02stMlbo"},
{"id":1000,"nombre":"Dela","email":"dtolottirr@ebay.co.uk","password":"r1GW5D766A"}]
